tb/sim/logs/run_1/sim_cfs_algn_int_tests_3_3_2_441919080.log
make[2]: Entering directory '/home/user/Documents/aligner_repo-main-1/aligner_repo-main/tb/sim'
=================================================
[INFO] Running TESTNAME=cfs_algn_int_tests_3_3_2
=================================================
Reading pref.tcl

# 2021.2_1

# vsim -coverage -c work.testbench "+UVM_TESTNAME=cfs_algn_int_tests_3_3_2" "+sv_seed=441919080" "+UVM_MAX_QUIT_COUNT=1" "+access+rw" -f messages.f -do "do ../../tb/sim/toggle_exclude.do; coverage save -onexit ucdb/cfs_algn_int_tests_3_3_2.ucdb; run -all; quit;" 
# Start time: 06:04:54 on May 11,2026
# ** Note: (vsim-8009) Loading existing optimized design _opt
# //  Questa Sim-64
# //  Version 2021.2_1 linux_x86_64 May 15 2021
# //
# //  Copyright 1991-2021 Mentor Graphics Corporation
# //  All Rights Reserved.
# //
# //  QuestaSim and its associated documentation contain trade
# //  secrets and commercial or financial information that are the property of
# //  Mentor Graphics Corporation and are privileged, confidential,
# //  and exempt from disclosure under the Freedom of Information Act,
# //  5 U.S.C. Section 552. Furthermore, this information
# //  is prohibited from disclosure under the Trade Secrets Act,
# //  18 U.S.C. Section 1905.
# //
# Loading sv_std.std
# Loading work.cfs_algn_if(fast)
# Loading work.cfs_apb_if(fast)
# Loading work.cfs_md_if(fast)
# Loading mtiUvm.uvm_pkg(fast)
# Loading work.cfs_algn_reg_pkg(fast)
# Loading work.uvm_ext_pkg(fast)
# Loading work.cfs_md_pkg(fast)
# Loading work.cfs_apb_pkg(fast)
# Loading work.cfs_algn_pkg(fast)
# Loading work.cfs_algn_test_pkg(fast)
# Loading mtiUvm.questa_uvm_pkg(fast)
# Loading work.testbench(fast)
# Loading work.cfs_apb_if(fast__2)
# Loading work.cfs_md_if(fast__2)
# Loading work.cfs_algn_if(fast__2)
# Loading work.cfs_aligner(fast)
# Loading work.cfs_aligner_core(fast)
# Loading work.cfs_rx_ctrl(fast)
# Loading work.cfs_synch(fast)
# Loading work.cfs_synch_fifo(fast)
# Loading work.cfs_tx_ctrl(fast)
# Loading work.cfs_ctrl(fast)
# Loading work.cfs_regs(fast)
# Loading work.cfs_edge_detect(fast)
# Loading work.cfs_edge_detect(fast__1)
# Loading /home/user/Downloads/questasim/uvm-1.1d/linux_x86_64/uvm_dpi.so
# do ../../tb/sim/toggle_exclude.do
# ** Warning: -comment options is supported in post simulation viewcov mode only, ignoring it.
# ** Warning: -comment options is supported in post simulation viewcov mode only, ignoring it.
# ** Warning: -comment options is supported in post simulation viewcov mode only, ignoring it.
# ** Warning: -comment options is supported in post simulation viewcov mode only, ignoring it.
# ** Warning: -comment options is supported in post simulation viewcov mode only, ignoring it.
#  coverage save -onexit ucdb/cfs_algn_int_tests_3_3_2.ucdb
#  run -all
# ----------------------------------------------------------------
# UVM-1.1d
# (C) 2007-2013 Mentor Graphics Corporation
# (C) 2007-2013 Cadence Design Systems, Inc.
# (C) 2006-2013 Synopsys, Inc.
# (C) 2011-2013 Cypress Semiconductor Corp.
# ----------------------------------------------------------------
# 
#   ***********       IMPORTANT RELEASE NOTES         ************
# 
#   You are using a version of the UVM library that has been compiled
#   with `UVM_NO_DEPRECATED undefined.
#   See http://www.eda.org/svdb/view.php?id=3313 for more details.
# 
#   You are using a version of the UVM library that has been compiled
#   with `UVM_OBJECT_MUST_HAVE_CONSTRUCTOR undefined.
#   See http://www.eda.org/svdb/view.php?id=3770 for more details.
# 
#       (Specify +UVM_NO_RELNOTES to turn off this notice)
# 
# UVM_INFO verilog_src/questa_uvm_pkg-1.2/src/questa_uvm_pkg.sv(277) @ 0: reporter [Questa UVM] QUESTA_UVM-1.2.3
# UVM_INFO verilog_src/questa_uvm_pkg-1.2/src/questa_uvm_pkg.sv(278) @ 0: reporter [Questa UVM]  questa_uvm::init(+struct)
# UVM_INFO @ 0: reporter [RNTST] Running test cfs_algn_int_tests_3_3_2...
# UVM_INFO @ 0: reporter [MAXQUITSET] '+UVM_MAX_QUIT_COUNT=1' provided on the command line is being applied.
# ** Warning: (vsim-8549) After dropping the illegal, ignore or invalid values, the values list associated with scalar bin 'length_eq_2' in Coverpoint 'length' of Covergroup instance '\/cfs_apb_pkg::cfs_apb_coverage::cover_item ' has converged to empty list. The bin will be taken out of coverage calculation.
#    Time: 0 ns  Iteration: 7  Region: /uvm_pkg::uvm_phase::m_run_phases
# ** Warning: (vsim-8547) After dropping the illegal, ignore or invalid values, the values list associated with fixed-size array sub bin 'length_le_10[1]' in Coverpoint 'length' of Covergroup instance '\/cfs_apb_pkg::cfs_apb_coverage::cover_item ' has converged to empty list. The sub bin will be taken out of coverage calculation.
#    Time: 0 ns  Iteration: 7  Region: /uvm_pkg::uvm_phase::m_run_phases
# ** Warning: (vsim-8547) After dropping the illegal, ignore or invalid values, the values list associated with fixed-size array sub bin 'length_le_10[2]' in Coverpoint 'length' of Covergroup instance '\/cfs_apb_pkg::cfs_apb_coverage::cover_item ' has converged to empty list. The sub bin will be taken out of coverage calculation.
#    Time: 0 ns  Iteration: 7  Region: /uvm_pkg::uvm_phase::m_run_phases
# ** Warning: (vsim-8547) After dropping the illegal, ignore or invalid values, the values list associated with fixed-size array sub bin 'length_le_10[3]' in Coverpoint 'length' of Covergroup instance '\/cfs_apb_pkg::cfs_apb_coverage::cover_item ' has converged to empty list. The sub bin will be taken out of coverage calculation.
#    Time: 0 ns  Iteration: 7  Region: /uvm_pkg::uvm_phase::m_run_phases
# ** Warning: (vsim-8547) After dropping the illegal, ignore or invalid values, the values list associated with fixed-size array sub bin 'length_le_10[4]' in Coverpoint 'length' of Covergroup instance '\/cfs_apb_pkg::cfs_apb_coverage::cover_item ' has converged to empty list. The sub bin will be taken out of coverage calculation.
#    Time: 0 ns  Iteration: 7  Region: /uvm_pkg::uvm_phase::m_run_phases
# ** Warning: (vsim-8547) After dropping the illegal, ignore or invalid values, the values list associated with fixed-size array sub bin 'length_le_10[5]' in Coverpoint 'length' of Covergroup instance '\/cfs_apb_pkg::cfs_apb_coverage::cover_item ' has converged to empty list. The sub bin will be taken out of coverage calculation.
#    Time: 0 ns  Iteration: 7  Region: /uvm_pkg::uvm_phase::m_run_phases
# ** Warning: (vsim-8547) After dropping the illegal, ignore or invalid values, the values list associated with fixed-size array sub bin 'length_le_10[6]' in Coverpoint 'length' of Covergroup instance '\/cfs_apb_pkg::cfs_apb_coverage::cover_item ' has converged to empty list. The sub bin will be taken out of coverage calculation.
#    Time: 0 ns  Iteration: 7  Region: /uvm_pkg::uvm_phase::m_run_phases
# ** Warning: (vsim-8547) After dropping the illegal, ignore or invalid values, the values list associated with fixed-size array sub bin 'length_le_10[7]' in Coverpoint 'length' of Covergroup instance '\/cfs_apb_pkg::cfs_apb_coverage::cover_item ' has converged to empty list. The sub bin will be taken out of coverage calculation.
#    Time: 0 ns  Iteration: 7  Region: /uvm_pkg::uvm_phase::m_run_phases
# ** Warning: (vsim-8549) After dropping the illegal, ignore or invalid values, the values list associated with scalar bin 'length_gt_10' in Coverpoint 'length' of Covergroup instance '\/cfs_apb_pkg::cfs_apb_coverage::cover_item ' has converged to empty list. The bin will be taken out of coverage calculation.
#    Time: 0 ns  Iteration: 7  Region: /uvm_pkg::uvm_phase::m_run_phases
# ** Warning: (vsim-12051) Illegal assignment in cast to class work.cfs_md_pkg::cfs_md_sequencer_base_master from class work.uvm_ext_pkg::uvm_ext_sequencer #(class work.cfs_md_pkg::cfs_md_item_drv_master)
#    Time: 0 ns  Iteration: 32  Process: /uvm_pkg::uvm_phase::m_run_phases/#FORK#1847_7fefe44bd36 File: ../env/cfs_algn_env.sv Line: 129
# ** Warning: (vsim-12051) Illegal assignment in cast to class work.cfs_md_pkg::cfs_md_sequencer_base_slave from class work.uvm_ext_pkg::uvm_ext_sequencer #(class work.cfs_md_pkg::cfs_md_item_drv_slave)
#    Time: 0 ns  Iteration: 32  Process: /uvm_pkg::uvm_phase::m_run_phases/#FORK#1847_7fefe44bd36 File: ../env/cfs_algn_env.sv Line: 130
# UVM_INFO verilog_src/uvm-1.1d/src/reg/uvm_reg_predictor.svh(218) @ 165: uvm_test_top.env.predictor [REG_PREDICT] Observed WRITE transaction to register reg_block.IRQEN: value='h13 : updated value = 'h13
# UVM_INFO verilog_src/uvm-1.1d/src/reg/uvm_reg_predictor.svh(218) @ 195: uvm_test_top.env.predictor [REG_PREDICT] Observed WRITE transaction to register reg_block.CTRL: value='h2 : updated value = 'h2
# UVM_INFO verilog_src/uvm-1.1d/src/reg/uvm_reg_predictor.svh(218) @ 235: uvm_test_top.env.predictor [REG_PREDICT] Observed WRITE transaction to register reg_block.IRQ: value='hd : updated value = 'h0
# UVM_INFO verilog_src/uvm-1.1d/src/reg/uvm_reg_predictor.svh(218) @ 315: uvm_test_top.env.predictor [REG_PREDICT] Observed WRITE transaction to register reg_block.CTRL: value='h101 : updated value = 'h101
# UVM_INFO verilog_src/uvm-1.1d/src/reg/uvm_reg_predictor.svh(223) @ 365: uvm_test_top.env.predictor [REG_PREDICT] Observed READ transaction to register reg_block.IRQEN: value='h13
# UVM_INFO verilog_src/uvm-1.1d/src/reg/uvm_reg_predictor.svh(218) @ 415: uvm_test_top.env.predictor [REG_PREDICT] Observed WRITE transaction to register reg_block.IRQEN: value='h0 : updated value = 'h0
# UVM_INFO ../model/cfs_algn_model.sv(543) @ 545: uvm_test_top.env.model [DEBUG] RX FIFO push - new level: 1, pushed entry: [536..] data: {'had}, size: 1, offset: 0, response: CFS_MD_OKAY, length: 1, prev_item_delay: 50
# UVM_INFO ../agent_md/cfs_md_monitor.sv(88) @ 545: uvm_test_top.env.md_rx_agent.monitor [ITEM_END] Monitored item: [536..545] data: {'had}, size: 1, offset: 0, response: CFS_MD_OKAY, length: 1, prev_item_delay: 50
# UVM_INFO ../model/cfs_algn_model.sv(757) @ 555: uvm_test_top.env.model [RX_FIFO] RX FIFO pop - new level: 0, popped entry: [536..545] data: {'had}, size: 1, offset: 0, response: CFS_MD_OKAY, length: 1, prev_item_delay: 50
# UVM_INFO ../model/cfs_algn_model.sv(847) @ 555: uvm_test_top.env.model [DEBUG1] md_offset:         0, md_size:         1##########################################################
# UVM_INFO ../model/cfs_algn_model.sv(258) @ 555: uvm_test_top.env.model [RX_FIFO] RX FIFO became empty - reg_block.IRQ.RX_FIFO_EMPTY: 1
# UVM_INFO ../model/cfs_algn_model.sv(543) @ 565: uvm_test_top.env.model [DEBUG] RX FIFO push - new level: 1, pushed entry: [556..] data: {'hac}, size: 1, offset: 0, response: CFS_MD_OKAY, length: 1, prev_item_delay: 1
# UVM_INFO ../model/cfs_algn_model.sv(772) @ 565: uvm_test_top.env.model [TX_FIFO] TX FIFO push - new level: 1, pushed entry: [536..545] data: {'had}, size: 1, offset: 1, response: CFS_MD_OKAY, length: 0, prev_item_delay: 0
# UVM_INFO ../agent_md/cfs_md_monitor.sv(88) @ 565: uvm_test_top.env.md_rx_agent.monitor [ITEM_END] Monitored item: [556..565] data: {'hac}, size: 1, offset: 0, response: CFS_MD_OKAY, length: 1, prev_item_delay: 1
# UVM_INFO ../model/cfs_algn_model.sv(757) @ 575: uvm_test_top.env.model [RX_FIFO] RX FIFO pop - new level: 0, popped entry: [556..565] data: {'hac}, size: 1, offset: 0, response: CFS_MD_OKAY, length: 1, prev_item_delay: 1
# UVM_INFO ../model/cfs_algn_model.sv(847) @ 575: uvm_test_top.env.model [DEBUG1] md_offset:         0, md_size:         1##########################################################
# UVM_INFO ../model/cfs_algn_model.sv(258) @ 575: uvm_test_top.env.model [RX_FIFO] RX FIFO became empty - reg_block.IRQ.RX_FIFO_EMPTY: 1
# UVM_INFO ../model/cfs_algn_model.sv(772) @ 585: uvm_test_top.env.model [TX_FIFO] TX FIFO push - new level: 2, pushed entry: [556..565] data: {'hac}, size: 1, offset: 1, response: CFS_MD_OKAY, length: 0, prev_item_delay: 0
# UVM_INFO ../model/cfs_algn_model.sv(543) @ 605: uvm_test_top.env.model [DEBUG] RX FIFO push - new level: 1, pushed entry: [596..] data: {'h6b}, size: 1, offset: 0, response: CFS_MD_OKAY, length: 1, prev_item_delay: 3
# UVM_INFO ../model/cfs_algn_model.sv(787) @ 605: uvm_test_top.env.model [TX_FIFO] TX FIFO pop - new level: 1, popped entry: [536..545] data: {'had}, size: 1, offset: 1, response: CFS_MD_OKAY, length: 0, prev_item_delay: 0
# UVM_INFO ../agent_md/cfs_md_monitor.sv(88) @ 605: uvm_test_top.env.md_rx_agent.monitor [ITEM_END] Monitored item: [596..605] data: {'h6b}, size: 1, offset: 0, response: CFS_MD_OKAY, length: 1, prev_item_delay: 3
# UVM_INFO ../agent_md/cfs_md_monitor.sv(88) @ 605: uvm_test_top.env.md_tx_agent.monitor [ITEM_END] Monitored item: [566..605] data: {'had}, size: 1, offset: 1, response: CFS_MD_ERR, length: 4, prev_item_delay: 53
# UVM_INFO ../model/cfs_algn_model.sv(757) @ 615: uvm_test_top.env.model [RX_FIFO] RX FIFO pop - new level: 0, popped entry: [596..605] data: {'h6b}, size: 1, offset: 0, response: CFS_MD_OKAY, length: 1, prev_item_delay: 3
# UVM_INFO ../model/cfs_algn_model.sv(847) @ 615: uvm_test_top.env.model [DEBUG1] md_offset:         0, md_size:         1##########################################################
# UVM_INFO ../model/cfs_algn_model.sv(258) @ 615: uvm_test_top.env.model [RX_FIFO] RX FIFO became empty - reg_block.IRQ.RX_FIFO_EMPTY: 1
# UVM_INFO ../model/cfs_algn_model.sv(772) @ 625: uvm_test_top.env.model [TX_FIFO] TX FIFO push - new level: 2, pushed entry: [596..605] data: {'h6b}, size: 1, offset: 1, response: CFS_MD_OKAY, length: 0, prev_item_delay: 0
# UVM_INFO ../model/cfs_algn_model.sv(543) @ 695: uvm_test_top.env.model [DEBUG] RX FIFO push - new level: 1, pushed entry: [686..] data: {'h6c}, size: 1, offset: 0, response: CFS_MD_OKAY, length: 1, prev_item_delay: 8
# UVM_INFO ../agent_md/cfs_md_monitor.sv(88) @ 695: uvm_test_top.env.md_rx_agent.monitor [ITEM_END] Monitored item: [686..695] data: {'h6c}, size: 1, offset: 0, response: CFS_MD_OKAY, length: 1, prev_item_delay: 8
# UVM_INFO ../model/cfs_algn_model.sv(757) @ 705: uvm_test_top.env.model [RX_FIFO] RX FIFO pop - new level: 0, popped entry: [686..695] data: {'h6c}, size: 1, offset: 0, response: CFS_MD_OKAY, length: 1, prev_item_delay: 8
# UVM_INFO ../model/cfs_algn_model.sv(847) @ 705: uvm_test_top.env.model [DEBUG1] md_offset:         0, md_size:         1##########################################################
# UVM_INFO ../model/cfs_algn_model.sv(258) @ 705: uvm_test_top.env.model [RX_FIFO] RX FIFO became empty - reg_block.IRQ.RX_FIFO_EMPTY: 1
# UVM_INFO ../model/cfs_algn_model.sv(543) @ 715: uvm_test_top.env.model [DEBUG] RX FIFO push - new level: 1, pushed entry: [706..] data: {'hf5}, size: 1, offset: 0, response: CFS_MD_OKAY, length: 1, prev_item_delay: 1
# UVM_INFO ../model/cfs_algn_model.sv(772) @ 715: uvm_test_top.env.model [TX_FIFO] TX FIFO push - new level: 3, pushed entry: [686..695] data: {'h6c}, size: 1, offset: 1, response: CFS_MD_OKAY, length: 0, prev_item_delay: 0
# UVM_INFO ../agent_md/cfs_md_monitor.sv(88) @ 715: uvm_test_top.env.md_rx_agent.monitor [ITEM_END] Monitored item: [706..715] data: {'hf5}, size: 1, offset: 0, response: CFS_MD_OKAY, length: 1, prev_item_delay: 1
# UVM_INFO ../model/cfs_algn_model.sv(757) @ 725: uvm_test_top.env.model [RX_FIFO] RX FIFO pop - new level: 0, popped entry: [706..715] data: {'hf5}, size: 1, offset: 0, response: CFS_MD_OKAY, length: 1, prev_item_delay: 1
# UVM_INFO ../model/cfs_algn_model.sv(847) @ 725: uvm_test_top.env.model [DEBUG1] md_offset:         0, md_size:         1##########################################################
# UVM_INFO ../model/cfs_algn_model.sv(258) @ 725: uvm_test_top.env.model [RX_FIFO] RX FIFO became empty - reg_block.IRQ.RX_FIFO_EMPTY: 1
# UVM_INFO ../model/cfs_algn_model.sv(772) @ 735: uvm_test_top.env.model [TX_FIFO] TX FIFO push - new level: 4, pushed entry: [706..715] data: {'hf5}, size: 1, offset: 1, response: CFS_MD_OKAY, length: 0, prev_item_delay: 0
# UVM_INFO ../model/cfs_algn_model.sv(543) @ 745: uvm_test_top.env.model [DEBUG] RX FIFO push - new level: 1, pushed entry: [736..] data: {'hd5}, size: 1, offset: 0, response: CFS_MD_OKAY, length: 1, prev_item_delay: 2
# UVM_INFO ../agent_md/cfs_md_monitor.sv(88) @ 745: uvm_test_top.env.md_rx_agent.monitor [ITEM_END] Monitored item: [736..745] data: {'hd5}, size: 1, offset: 0, response: CFS_MD_OKAY, length: 1, prev_item_delay: 2
# UVM_INFO ../model/cfs_algn_model.sv(757) @ 755: uvm_test_top.env.model [RX_FIFO] RX FIFO pop - new level: 0, popped entry: [736..745] data: {'hd5}, size: 1, offset: 0, response: CFS_MD_OKAY, length: 1, prev_item_delay: 2
# UVM_INFO ../model/cfs_algn_model.sv(847) @ 755: uvm_test_top.env.model [DEBUG1] md_offset:         0, md_size:         1##########################################################
# UVM_INFO ../model/cfs_algn_model.sv(258) @ 755: uvm_test_top.env.model [RX_FIFO] RX FIFO became empty - reg_block.IRQ.RX_FIFO_EMPTY: 1
# UVM_INFO ../model/cfs_algn_model.sv(772) @ 765: uvm_test_top.env.model [TX_FIFO] TX FIFO push - new level: 5, pushed entry: [736..745] data: {'hd5}, size: 1, offset: 1, response: CFS_MD_OKAY, length: 0, prev_item_delay: 0
# UVM_INFO ../model/cfs_algn_model.sv(543) @ 775: uvm_test_top.env.model [DEBUG] RX FIFO push - new level: 1, pushed entry: [766..] data: {'h61}, size: 1, offset: 0, response: CFS_MD_OKAY, length: 1, prev_item_delay: 2
# UVM_INFO ../agent_md/cfs_md_monitor.sv(88) @ 775: uvm_test_top.env.md_rx_agent.monitor [ITEM_END] Monitored item: [766..775] data: {'h61}, size: 1, offset: 0, response: CFS_MD_OKAY, length: 1, prev_item_delay: 2
# UVM_INFO ../model/cfs_algn_model.sv(757) @ 785: uvm_test_top.env.model [RX_FIFO] RX FIFO pop - new level: 0, popped entry: [766..775] data: {'h61}, size: 1, offset: 0, response: CFS_MD_OKAY, length: 1, prev_item_delay: 2
# UVM_INFO ../model/cfs_algn_model.sv(847) @ 785: uvm_test_top.env.model [DEBUG1] md_offset:         0, md_size:         1##########################################################
# UVM_INFO ../model/cfs_algn_model.sv(258) @ 785: uvm_test_top.env.model [RX_FIFO] RX FIFO became empty - reg_block.IRQ.RX_FIFO_EMPTY: 1
# UVM_INFO ../model/cfs_algn_model.sv(772) @ 795: uvm_test_top.env.model [TX_FIFO] TX FIFO push - new level: 6, pushed entry: [766..775] data: {'h61}, size: 1, offset: 1, response: CFS_MD_OKAY, length: 0, prev_item_delay: 0
# UVM_INFO ../model/cfs_algn_model.sv(543) @ 835: uvm_test_top.env.model [DEBUG] RX FIFO push - new level: 1, pushed entry: [826..] data: {'h24}, size: 1, offset: 0, response: CFS_MD_OKAY, length: 1, prev_item_delay: 5
# UVM_INFO ../agent_md/cfs_md_monitor.sv(88) @ 835: uvm_test_top.env.md_rx_agent.monitor [ITEM_END] Monitored item: [826..835] data: {'h24}, size: 1, offset: 0, response: CFS_MD_OKAY, length: 1, prev_item_delay: 5
# UVM_INFO ../model/cfs_algn_model.sv(757) @ 845: uvm_test_top.env.model [RX_FIFO] RX FIFO pop - new level: 0, popped entry: [826..835] data: {'h24}, size: 1, offset: 0, response: CFS_MD_OKAY, length: 1, prev_item_delay: 5
# UVM_INFO ../model/cfs_algn_model.sv(847) @ 845: uvm_test_top.env.model [DEBUG1] md_offset:         0, md_size:         1##########################################################
# UVM_INFO ../model/cfs_algn_model.sv(258) @ 845: uvm_test_top.env.model [RX_FIFO] RX FIFO became empty - reg_block.IRQ.RX_FIFO_EMPTY: 1
# UVM_INFO ../model/cfs_algn_model.sv(772) @ 855: uvm_test_top.env.model [TX_FIFO] TX FIFO push - new level: 7, pushed entry: [826..835] data: {'h24}, size: 1, offset: 1, response: CFS_MD_OKAY, length: 0, prev_item_delay: 0
# UVM_INFO ../model/cfs_algn_model.sv(543) @ 905: uvm_test_top.env.model [DEBUG] RX FIFO push - new level: 1, pushed entry: [896..] data: {'h50}, size: 1, offset: 0, response: CFS_MD_OKAY, length: 1, prev_item_delay: 6
# UVM_INFO ../agent_md/cfs_md_monitor.sv(88) @ 905: uvm_test_top.env.md_rx_agent.monitor [ITEM_END] Monitored item: [896..905] data: {'h50}, size: 1, offset: 0, response: CFS_MD_OKAY, length: 1, prev_item_delay: 6
# UVM_INFO ../model/cfs_algn_model.sv(757) @ 915: uvm_test_top.env.model [RX_FIFO] RX FIFO pop - new level: 0, popped entry: [896..905] data: {'h50}, size: 1, offset: 0, response: CFS_MD_OKAY, length: 1, prev_item_delay: 6
# UVM_INFO ../model/cfs_algn_model.sv(847) @ 915: uvm_test_top.env.model [DEBUG1] md_offset:         0, md_size:         1##########################################################
# UVM_INFO ../model/cfs_algn_model.sv(258) @ 915: uvm_test_top.env.model [RX_FIFO] RX FIFO became empty - reg_block.IRQ.RX_FIFO_EMPTY: 1
# UVM_INFO ../model/cfs_algn_model.sv(772) @ 925: uvm_test_top.env.model [TX_FIFO] TX FIFO push - new level: 8, pushed entry: [896..905] data: {'h50}, size: 1, offset: 1, response: CFS_MD_OKAY, length: 0, prev_item_delay: 0
# UVM_INFO ../model/cfs_algn_model.sv(285) @ 925: uvm_test_top.env.model [TX_FIFO] TX FIFO became full - reg_block.IRQ.TX_FIFO_FULL: 1
# UVM_INFO ../model/cfs_algn_model.sv(543) @ 975: uvm_test_top.env.model [DEBUG] RX FIFO push - new level: 1, pushed entry: [966..] data: {'h7d}, size: 1, offset: 0, response: CFS_MD_OKAY, length: 1, prev_item_delay: 6
# UVM_INFO ../agent_md/cfs_md_monitor.sv(88) @ 975: uvm_test_top.env.md_rx_agent.monitor [ITEM_END] Monitored item: [966..975] data: {'h7d}, size: 1, offset: 0, response: CFS_MD_OKAY, length: 1, prev_item_delay: 6
# UVM_INFO ../model/cfs_algn_model.sv(757) @ 985: uvm_test_top.env.model [RX_FIFO] RX FIFO pop - new level: 0, popped entry: [966..975] data: {'h7d}, size: 1, offset: 0, response: CFS_MD_OKAY, length: 1, prev_item_delay: 6
# UVM_INFO ../model/cfs_algn_model.sv(847) @ 985: uvm_test_top.env.model [DEBUG1] md_offset:         0, md_size:         1##########################################################
# UVM_INFO ../model/cfs_algn_model.sv(258) @ 985: uvm_test_top.env.model [RX_FIFO] RX FIFO became empty - reg_block.IRQ.RX_FIFO_EMPTY: 1
# UVM_INFO ../model/cfs_algn_model.sv(543) @ 1065: uvm_test_top.env.model [DEBUG] RX FIFO push - new level: 1, pushed entry: [1056..] data: {'h77}, size: 1, offset: 0, response: CFS_MD_OKAY, length: 1, prev_item_delay: 8
# UVM_INFO ../agent_md/cfs_md_monitor.sv(88) @ 1065: uvm_test_top.env.md_rx_agent.monitor [ITEM_END] Monitored item: [1056..1065] data: {'h77}, size: 1, offset: 0, response: CFS_MD_OKAY, length: 1, prev_item_delay: 8
# UVM_INFO ../model/cfs_algn_model.sv(757) @ 1075: uvm_test_top.env.model [RX_FIFO] RX FIFO pop - new level: 0, popped entry: [1056..1065] data: {'h77}, size: 1, offset: 0, response: CFS_MD_OKAY, length: 1, prev_item_delay: 8
# UVM_INFO ../model/cfs_algn_model.sv(258) @ 1075: uvm_test_top.env.model [RX_FIFO] RX FIFO became empty - reg_block.IRQ.RX_FIFO_EMPTY: 1
# UVM_INFO ../model/cfs_algn_model.sv(543) @ 1135: uvm_test_top.env.model [DEBUG] RX FIFO push - new level: 1, pushed entry: [1126..] data: {'h01}, size: 1, offset: 0, response: CFS_MD_OKAY, length: 1, prev_item_delay: 6
# UVM_INFO ../agent_md/cfs_md_monitor.sv(88) @ 1135: uvm_test_top.env.md_rx_agent.monitor [ITEM_END] Monitored item: [1126..1135] data: {'h01}, size: 1, offset: 0, response: CFS_MD_OKAY, length: 1, prev_item_delay: 6
# UVM_INFO ../model/cfs_algn_model.sv(543) @ 1235: uvm_test_top.env.model [DEBUG] RX FIFO push - new level: 2, pushed entry: [1226..] data: {'h84}, size: 1, offset: 0, response: CFS_MD_OKAY, length: 1, prev_item_delay: 9
# UVM_INFO ../agent_md/cfs_md_monitor.sv(88) @ 1235: uvm_test_top.env.md_rx_agent.monitor [ITEM_END] Monitored item: [1226..1235] data: {'h84}, size: 1, offset: 0, response: CFS_MD_OKAY, length: 1, prev_item_delay: 9
# UVM_INFO ../model/cfs_algn_model.sv(543) @ 1255: uvm_test_top.env.model [DEBUG] RX FIFO push - new level: 3, pushed entry: [1246..] data: {'h71}, size: 1, offset: 0, response: CFS_MD_OKAY, length: 1, prev_item_delay: 1
# UVM_INFO ../agent_md/cfs_md_monitor.sv(88) @ 1255: uvm_test_top.env.md_rx_agent.monitor [ITEM_END] Monitored item: [1246..1255] data: {'h71}, size: 1, offset: 0, response: CFS_MD_OKAY, length: 1, prev_item_delay: 1
# UVM_INFO ../model/cfs_algn_model.sv(543) @ 1305: uvm_test_top.env.model [DEBUG] RX FIFO push - new level: 4, pushed entry: [1296..] data: {'h87}, size: 1, offset: 0, response: CFS_MD_OKAY, length: 1, prev_item_delay: 4
# UVM_INFO ../agent_md/cfs_md_monitor.sv(88) @ 1305: uvm_test_top.env.md_rx_agent.monitor [ITEM_END] Monitored item: [1296..1305] data: {'h87}, size: 1, offset: 0, response: CFS_MD_OKAY, length: 1, prev_item_delay: 4
# UVM_INFO ../model/cfs_algn_model.sv(543) @ 1405: uvm_test_top.env.model [DEBUG] RX FIFO push - new level: 5, pushed entry: [1396..] data: {'h58}, size: 1, offset: 0, response: CFS_MD_OKAY, length: 1, prev_item_delay: 9
# UVM_INFO ../agent_md/cfs_md_monitor.sv(88) @ 1405: uvm_test_top.env.md_rx_agent.monitor [ITEM_END] Monitored item: [1396..1405] data: {'h58}, size: 1, offset: 0, response: CFS_MD_OKAY, length: 1, prev_item_delay: 9
# UVM_INFO ../model/cfs_algn_model.sv(543) @ 1435: uvm_test_top.env.model [DEBUG] RX FIFO push - new level: 6, pushed entry: [1426..] data: {'h1b}, size: 1, offset: 0, response: CFS_MD_OKAY, length: 1, prev_item_delay: 2
# UVM_INFO ../agent_md/cfs_md_monitor.sv(88) @ 1435: uvm_test_top.env.md_rx_agent.monitor [ITEM_END] Monitored item: [1426..1435] data: {'h1b}, size: 1, offset: 0, response: CFS_MD_OKAY, length: 1, prev_item_delay: 2
# UVM_INFO ../model/cfs_algn_model.sv(543) @ 1515: uvm_test_top.env.model [DEBUG] RX FIFO push - new level: 7, pushed entry: [1506..] data: {'h7d}, size: 1, offset: 0, response: CFS_MD_OKAY, length: 1, prev_item_delay: 7
# UVM_INFO ../agent_md/cfs_md_monitor.sv(88) @ 1515: uvm_test_top.env.md_rx_agent.monitor [ITEM_END] Monitored item: [1506..1515] data: {'h7d}, size: 1, offset: 0, response: CFS_MD_OKAY, length: 1, prev_item_delay: 7
# UVM_WARNING verilog_src/uvm-1.1d/src/reg/uvm_reg_field.svh(1714) @ 1535: reporter [RegModel] Individual field access not available for field 'reg_block.STATUS.RX_LVL'. Accessing complete register instead.
# UVM_INFO verilog_src/uvm-1.1d/src/reg/uvm_reg_predictor.svh(223) @ 1575: uvm_test_top.env.predictor [REG_PREDICT] Observed READ transaction to register reg_block.STATUS: value='h80700
# UVM_INFO ../model/cfs_algn_model.sv(543) @ 1595: uvm_test_top.env.model [DEBUG] RX FIFO push - new level: 8, pushed entry: [1586..] data: {'h22}, size: 1, offset: 0, response: CFS_MD_OKAY, length: 1, prev_item_delay: 7
# UVM_INFO ../agent_md/cfs_md_monitor.sv(88) @ 1595: uvm_test_top.env.md_rx_agent.monitor [ITEM_END] Monitored item: [1586..1595] data: {'h22}, size: 1, offset: 0, response: CFS_MD_OKAY, length: 1, prev_item_delay: 7
# UVM_INFO ../model/cfs_algn_model.sv(231) @ 1595: uvm_test_top.env.model [RX_FIFO] RX FIFO became full - reg_block.IRQ.RX_FIFO_FULL: 1
# UVM_WARNING verilog_src/uvm-1.1d/src/reg/uvm_reg_field.svh(1714) @ 1615: reporter [RegModel] Individual field access not available for field 'reg_block.STATUS.RX_LVL'. Accessing complete register instead.
# UVM_INFO verilog_src/uvm-1.1d/src/reg/uvm_reg_predictor.svh(223) @ 1695: uvm_test_top.env.predictor [REG_PREDICT] Observed READ transaction to register reg_block.STATUS: value='h80800
# UVM_INFO verilog_src/uvm-1.1d/src/reg/uvm_reg_predictor.svh(218) @ 1785: uvm_test_top.env.predictor [REG_PREDICT] Observed WRITE transaction to register reg_block.IRQ: value='h2 : updated value = 'h9
# UVM_INFO verilog_src/uvm-1.1d/src/base/uvm_objection.svh(1267) @ 2285: reporter [TEST_DONE] 'run' phase is ready to proceed to the 'extract' phase
# 
# --- UVM Report Summary ---
# 
# Quit count :     0 of     1
# ** Report counts by severity
# UVM_INFO :   97
# UVM_WARNING :    2
# UVM_ERROR :    0
# UVM_FATAL :    0
# ** Report counts by id
# [DEBUG]    19
# [DEBUG1]    10
# [ITEM_END]    20
# [MAXQUITSET]     1
# [Questa UVM]     2
# [REG_PREDICT]     9
# [RNTST]     1
# [RX_FIFO]    23
# [RegModel]     2
# [TEST_DONE]     1
# [TX_FIFO]    11
# ** Note: $finish    : /home/user/Downloads/questasim/linux_x86_64/../verilog_src/uvm-1.1d/src/base/uvm_root.svh(430)
#    Time: 2285 ns  Iteration: 54  Instance: /testbench
# Saving coverage database on exit...
# End time: 06:04:58 on May 11,2026, Elapsed time: 0:00:04
# Errors: 0, Warnings: 16

