tb/sim/logs/run_1/sim_cfs_algn_int_tests_3_3_3_605177454.log
make[2]: Entering directory '/home/user/Documents/aligner_repo-main-1/aligner_repo-main/tb/sim'
=================================================
[INFO] Running TESTNAME=cfs_algn_int_tests_3_3_3
=================================================
Reading pref.tcl

# 2021.2_1

# vsim -coverage -c work.testbench "+UVM_TESTNAME=cfs_algn_int_tests_3_3_3" "+sv_seed=605177454" "+UVM_MAX_QUIT_COUNT=1" "+access+rw" -f messages.f -do "do ../../tb/sim/toggle_exclude.do; coverage save -onexit ucdb/cfs_algn_int_tests_3_3_3.ucdb; run -all; quit;" 
# Start time: 06:05:07 on May 11,2026
# ** Note: (vsim-8009) Loading existing optimized design _opt
# //  Questa Sim-64
# //  Version 2021.2_1 linux_x86_64 May 15 2021
# //
# //  Copyright 1991-2021 Mentor Graphics Corporation
# //  All Rights Reserved.
# //
# //  QuestaSim and its associated documentation contain trade
# //  secrets and commercial or financial information that are the property of
# //  Mentor Graphics Corporation and are privileged, confidential,
# //  and exempt from disclosure under the Freedom of Information Act,
# //  5 U.S.C. Section 552. Furthermore, this information
# //  is prohibited from disclosure under the Trade Secrets Act,
# //  18 U.S.C. Section 1905.
# //
# Loading sv_std.std
# Loading work.cfs_algn_if(fast)
# Loading work.cfs_apb_if(fast)
# Loading work.cfs_md_if(fast)
# Loading mtiUvm.uvm_pkg(fast)
# Loading work.cfs_algn_reg_pkg(fast)
# Loading work.uvm_ext_pkg(fast)
# Loading work.cfs_md_pkg(fast)
# Loading work.cfs_apb_pkg(fast)
# Loading work.cfs_algn_pkg(fast)
# Loading work.cfs_algn_test_pkg(fast)
# Loading mtiUvm.questa_uvm_pkg(fast)
# Loading work.testbench(fast)
# Loading work.cfs_apb_if(fast__2)
# Loading work.cfs_md_if(fast__2)
# Loading work.cfs_algn_if(fast__2)
# Loading work.cfs_aligner(fast)
# Loading work.cfs_aligner_core(fast)
# Loading work.cfs_rx_ctrl(fast)
# Loading work.cfs_synch(fast)
# Loading work.cfs_synch_fifo(fast)
# Loading work.cfs_tx_ctrl(fast)
# Loading work.cfs_ctrl(fast)
# Loading work.cfs_regs(fast)
# Loading work.cfs_edge_detect(fast)
# Loading work.cfs_edge_detect(fast__1)
# Loading /home/user/Downloads/questasim/uvm-1.1d/linux_x86_64/uvm_dpi.so
# do ../../tb/sim/toggle_exclude.do
# ** Warning: -comment options is supported in post simulation viewcov mode only, ignoring it.
# ** Warning: -comment options is supported in post simulation viewcov mode only, ignoring it.
# ** Warning: -comment options is supported in post simulation viewcov mode only, ignoring it.
# ** Warning: -comment options is supported in post simulation viewcov mode only, ignoring it.
# ** Warning: -comment options is supported in post simulation viewcov mode only, ignoring it.
#  coverage save -onexit ucdb/cfs_algn_int_tests_3_3_3.ucdb
#  run -all
# ----------------------------------------------------------------
# UVM-1.1d
# (C) 2007-2013 Mentor Graphics Corporation
# (C) 2007-2013 Cadence Design Systems, Inc.
# (C) 2006-2013 Synopsys, Inc.
# (C) 2011-2013 Cypress Semiconductor Corp.
# ----------------------------------------------------------------
# 
#   ***********       IMPORTANT RELEASE NOTES         ************
# 
#   You are using a version of the UVM library that has been compiled
#   with `UVM_NO_DEPRECATED undefined.
#   See http://www.eda.org/svdb/view.php?id=3313 for more details.
# 
#   You are using a version of the UVM library that has been compiled
#   with `UVM_OBJECT_MUST_HAVE_CONSTRUCTOR undefined.
#   See http://www.eda.org/svdb/view.php?id=3770 for more details.
# 
#       (Specify +UVM_NO_RELNOTES to turn off this notice)
# 
# UVM_INFO verilog_src/questa_uvm_pkg-1.2/src/questa_uvm_pkg.sv(277) @ 0: reporter [Questa UVM] QUESTA_UVM-1.2.3
# UVM_INFO verilog_src/questa_uvm_pkg-1.2/src/questa_uvm_pkg.sv(278) @ 0: reporter [Questa UVM]  questa_uvm::init(+struct)
# UVM_INFO @ 0: reporter [RNTST] Running test cfs_algn_int_tests_3_3_3...
# UVM_INFO @ 0: reporter [MAXQUITSET] '+UVM_MAX_QUIT_COUNT=1' provided on the command line is being applied.
# ** Warning: (vsim-8549) After dropping the illegal, ignore or invalid values, the values list associated with scalar bin 'length_eq_2' in Coverpoint 'length' of Covergroup instance '\/cfs_apb_pkg::cfs_apb_coverage::cover_item ' has converged to empty list. The bin will be taken out of coverage calculation.
#    Time: 0 ns  Iteration: 7  Region: /uvm_pkg::uvm_phase::m_run_phases
# ** Warning: (vsim-8547) After dropping the illegal, ignore or invalid values, the values list associated with fixed-size array sub bin 'length_le_10[1]' in Coverpoint 'length' of Covergroup instance '\/cfs_apb_pkg::cfs_apb_coverage::cover_item ' has converged to empty list. The sub bin will be taken out of coverage calculation.
#    Time: 0 ns  Iteration: 7  Region: /uvm_pkg::uvm_phase::m_run_phases
# ** Warning: (vsim-8547) After dropping the illegal, ignore or invalid values, the values list associated with fixed-size array sub bin 'length_le_10[2]' in Coverpoint 'length' of Covergroup instance '\/cfs_apb_pkg::cfs_apb_coverage::cover_item ' has converged to empty list. The sub bin will be taken out of coverage calculation.
#    Time: 0 ns  Iteration: 7  Region: /uvm_pkg::uvm_phase::m_run_phases
# ** Warning: (vsim-8547) After dropping the illegal, ignore or invalid values, the values list associated with fixed-size array sub bin 'length_le_10[3]' in Coverpoint 'length' of Covergroup instance '\/cfs_apb_pkg::cfs_apb_coverage::cover_item ' has converged to empty list. The sub bin will be taken out of coverage calculation.
#    Time: 0 ns  Iteration: 7  Region: /uvm_pkg::uvm_phase::m_run_phases
# ** Warning: (vsim-8547) After dropping the illegal, ignore or invalid values, the values list associated with fixed-size array sub bin 'length_le_10[4]' in Coverpoint 'length' of Covergroup instance '\/cfs_apb_pkg::cfs_apb_coverage::cover_item ' has converged to empty list. The sub bin will be taken out of coverage calculation.
#    Time: 0 ns  Iteration: 7  Region: /uvm_pkg::uvm_phase::m_run_phases
# ** Warning: (vsim-8547) After dropping the illegal, ignore or invalid values, the values list associated with fixed-size array sub bin 'length_le_10[5]' in Coverpoint 'length' of Covergroup instance '\/cfs_apb_pkg::cfs_apb_coverage::cover_item ' has converged to empty list. The sub bin will be taken out of coverage calculation.
#    Time: 0 ns  Iteration: 7  Region: /uvm_pkg::uvm_phase::m_run_phases
# ** Warning: (vsim-8547) After dropping the illegal, ignore or invalid values, the values list associated with fixed-size array sub bin 'length_le_10[6]' in Coverpoint 'length' of Covergroup instance '\/cfs_apb_pkg::cfs_apb_coverage::cover_item ' has converged to empty list. The sub bin will be taken out of coverage calculation.
#    Time: 0 ns  Iteration: 7  Region: /uvm_pkg::uvm_phase::m_run_phases
# ** Warning: (vsim-8547) After dropping the illegal, ignore or invalid values, the values list associated with fixed-size array sub bin 'length_le_10[7]' in Coverpoint 'length' of Covergroup instance '\/cfs_apb_pkg::cfs_apb_coverage::cover_item ' has converged to empty list. The sub bin will be taken out of coverage calculation.
#    Time: 0 ns  Iteration: 7  Region: /uvm_pkg::uvm_phase::m_run_phases
# ** Warning: (vsim-8549) After dropping the illegal, ignore or invalid values, the values list associated with scalar bin 'length_gt_10' in Coverpoint 'length' of Covergroup instance '\/cfs_apb_pkg::cfs_apb_coverage::cover_item ' has converged to empty list. The bin will be taken out of coverage calculation.
#    Time: 0 ns  Iteration: 7  Region: /uvm_pkg::uvm_phase::m_run_phases
# ** Warning: (vsim-12051) Illegal assignment in cast to class work.cfs_md_pkg::cfs_md_sequencer_base_master from class work.uvm_ext_pkg::uvm_ext_sequencer #(class work.cfs_md_pkg::cfs_md_item_drv_master)
#    Time: 0 ns  Iteration: 32  Process: /uvm_pkg::uvm_phase::m_run_phases/#FORK#1847_7fefe44bd36 File: ../env/cfs_algn_env.sv Line: 129
# ** Warning: (vsim-12051) Illegal assignment in cast to class work.cfs_md_pkg::cfs_md_sequencer_base_slave from class work.uvm_ext_pkg::uvm_ext_sequencer #(class work.cfs_md_pkg::cfs_md_item_drv_slave)
#    Time: 0 ns  Iteration: 32  Process: /uvm_pkg::uvm_phase::m_run_phases/#FORK#1847_7fefe44bd36 File: ../env/cfs_algn_env.sv Line: 130
# UVM_INFO verilog_src/uvm-1.1d/src/reg/uvm_reg_predictor.svh(218) @ 165: uvm_test_top.env.predictor [REG_PREDICT] Observed WRITE transaction to register reg_block.IRQEN: value='h13 : updated value = 'h13
# UVM_INFO verilog_src/uvm-1.1d/src/reg/uvm_reg_predictor.svh(218) @ 195: uvm_test_top.env.predictor [REG_PREDICT] Observed WRITE transaction to register reg_block.CTRL: value='h2 : updated value = 'h2
# UVM_INFO verilog_src/uvm-1.1d/src/reg/uvm_reg_predictor.svh(218) @ 235: uvm_test_top.env.predictor [REG_PREDICT] Observed WRITE transaction to register reg_block.IRQ: value='hd : updated value = 'h0
# UVM_INFO verilog_src/uvm-1.1d/src/reg/uvm_reg_predictor.svh(218) @ 315: uvm_test_top.env.predictor [REG_PREDICT] Observed WRITE transaction to register reg_block.CTRL: value='h4 : updated value = 'h4
# UVM_INFO ../test/int_tests/cfs_algn_int_tests_3_3_3.sv(50) @ 335: uvm_test_top [3_3_3] Configured CTRL.SIZE = 4, OFFSET = 0
# UVM_INFO verilog_src/uvm-1.1d/src/reg/uvm_reg_predictor.svh(223) @ 365: uvm_test_top.env.predictor [REG_PREDICT] Observed READ transaction to register reg_block.IRQEN: value='h13
# UVM_INFO verilog_src/uvm-1.1d/src/reg/uvm_reg_predictor.svh(218) @ 415: uvm_test_top.env.predictor [REG_PREDICT] Observed WRITE transaction to register reg_block.IRQEN: value='h1 : updated value = 'h1
# UVM_INFO ../test/int_tests/cfs_algn_int_tests_3_3_3.sv(54) @ 465: uvm_test_top [3_3_3] IRQEN configured: 0x1
# UVM_INFO ../model/cfs_algn_model.sv(543) @ 495: uvm_test_top.env.model [DEBUG] RX FIFO push - new level: 1, pushed entry: [486..] data: {'had}, size: 1, offset: 0, response: CFS_MD_OKAY, length: 1, prev_item_delay: 45
# UVM_INFO ../agent_md/cfs_md_monitor.sv(88) @ 495: uvm_test_top.env.md_rx_agent.monitor [ITEM_END] Monitored item: [486..495] data: {'had}, size: 1, offset: 0, response: CFS_MD_OKAY, length: 1, prev_item_delay: 45
# UVM_INFO ../model/cfs_algn_model.sv(757) @ 505: uvm_test_top.env.model [RX_FIFO] RX FIFO pop - new level: 0, popped entry: [486..495] data: {'had}, size: 1, offset: 0, response: CFS_MD_OKAY, length: 1, prev_item_delay: 45
# UVM_INFO ../model/cfs_algn_model.sv(258) @ 505: uvm_test_top.env.model [RX_FIFO] RX FIFO became empty - reg_block.IRQ.RX_FIFO_EMPTY: 1
# UVM_INFO ../model/cfs_algn_model.sv(543) @ 515: uvm_test_top.env.model [DEBUG] RX FIFO push - new level: 1, pushed entry: [506..] data: {'hac}, size: 1, offset: 0, response: CFS_MD_OKAY, length: 1, prev_item_delay: 1
# UVM_INFO ../agent_md/cfs_md_monitor.sv(88) @ 515: uvm_test_top.env.md_rx_agent.monitor [ITEM_END] Monitored item: [506..515] data: {'hac}, size: 1, offset: 0, response: CFS_MD_OKAY, length: 1, prev_item_delay: 1
# UVM_INFO ../model/cfs_algn_model.sv(757) @ 525: uvm_test_top.env.model [RX_FIFO] RX FIFO pop - new level: 0, popped entry: [506..515] data: {'hac}, size: 1, offset: 0, response: CFS_MD_OKAY, length: 1, prev_item_delay: 1
# UVM_INFO ../model/cfs_algn_model.sv(258) @ 525: uvm_test_top.env.model [RX_FIFO] RX FIFO became empty - reg_block.IRQ.RX_FIFO_EMPTY: 1
# UVM_INFO ../model/cfs_algn_model.sv(543) @ 555: uvm_test_top.env.model [DEBUG] RX FIFO push - new level: 1, pushed entry: [546..] data: {'h6b}, size: 1, offset: 0, response: CFS_MD_OKAY, length: 1, prev_item_delay: 3
# UVM_INFO ../agent_md/cfs_md_monitor.sv(88) @ 555: uvm_test_top.env.md_rx_agent.monitor [ITEM_END] Monitored item: [546..555] data: {'h6b}, size: 1, offset: 0, response: CFS_MD_OKAY, length: 1, prev_item_delay: 3
# UVM_INFO ../model/cfs_algn_model.sv(757) @ 565: uvm_test_top.env.model [RX_FIFO] RX FIFO pop - new level: 0, popped entry: [546..555] data: {'h6b}, size: 1, offset: 0, response: CFS_MD_OKAY, length: 1, prev_item_delay: 3
# UVM_INFO ../model/cfs_algn_model.sv(258) @ 565: uvm_test_top.env.model [RX_FIFO] RX FIFO became empty - reg_block.IRQ.RX_FIFO_EMPTY: 1
# UVM_INFO ../model/cfs_algn_model.sv(543) @ 645: uvm_test_top.env.model [DEBUG] RX FIFO push - new level: 1, pushed entry: [636..] data: {'h6c}, size: 1, offset: 0, response: CFS_MD_OKAY, length: 1, prev_item_delay: 8
# UVM_INFO ../agent_md/cfs_md_monitor.sv(88) @ 645: uvm_test_top.env.md_rx_agent.monitor [ITEM_END] Monitored item: [636..645] data: {'h6c}, size: 1, offset: 0, response: CFS_MD_OKAY, length: 1, prev_item_delay: 8
# UVM_INFO ../model/cfs_algn_model.sv(757) @ 655: uvm_test_top.env.model [RX_FIFO] RX FIFO pop - new level: 0, popped entry: [636..645] data: {'h6c}, size: 1, offset: 0, response: CFS_MD_OKAY, length: 1, prev_item_delay: 8
# UVM_INFO ../model/cfs_algn_model.sv(847) @ 655: uvm_test_top.env.model [DEBUG1] md_offset:         0, md_size:         1##########################################################
# UVM_INFO ../model/cfs_algn_model.sv(258) @ 655: uvm_test_top.env.model [RX_FIFO] RX FIFO became empty - reg_block.IRQ.RX_FIFO_EMPTY: 1
# UVM_INFO ../model/cfs_algn_model.sv(543) @ 665: uvm_test_top.env.model [DEBUG] RX FIFO push - new level: 1, pushed entry: [656..] data: {'hf5}, size: 1, offset: 0, response: CFS_MD_OKAY, length: 1, prev_item_delay: 1
# UVM_INFO ../model/cfs_algn_model.sv(772) @ 665: uvm_test_top.env.model [TX_FIFO] TX FIFO push - new level: 1, pushed entry: [486..645] data: {'had, 'hac, 'h6b, 'h6c}, size: 4, offset: 0, response: CFS_MD_OKAY, length: 0, prev_item_delay: 0
# UVM_INFO ../agent_md/cfs_md_monitor.sv(88) @ 665: uvm_test_top.env.md_rx_agent.monitor [ITEM_END] Monitored item: [656..665] data: {'hf5}, size: 1, offset: 0, response: CFS_MD_OKAY, length: 1, prev_item_delay: 1
# UVM_INFO ../model/cfs_algn_model.sv(757) @ 675: uvm_test_top.env.model [RX_FIFO] RX FIFO pop - new level: 0, popped entry: [656..665] data: {'hf5}, size: 1, offset: 0, response: CFS_MD_OKAY, length: 1, prev_item_delay: 1
# UVM_INFO ../model/cfs_algn_model.sv(258) @ 675: uvm_test_top.env.model [RX_FIFO] RX FIFO became empty - reg_block.IRQ.RX_FIFO_EMPTY: 1
# UVM_INFO ../model/cfs_algn_model.sv(543) @ 695: uvm_test_top.env.model [DEBUG] RX FIFO push - new level: 1, pushed entry: [686..] data: {'hd5}, size: 1, offset: 0, response: CFS_MD_OKAY, length: 1, prev_item_delay: 2
# UVM_INFO ../agent_md/cfs_md_monitor.sv(88) @ 695: uvm_test_top.env.md_rx_agent.monitor [ITEM_END] Monitored item: [686..695] data: {'hd5}, size: 1, offset: 0, response: CFS_MD_OKAY, length: 1, prev_item_delay: 2
# UVM_INFO ../model/cfs_algn_model.sv(757) @ 705: uvm_test_top.env.model [RX_FIFO] RX FIFO pop - new level: 0, popped entry: [686..695] data: {'hd5}, size: 1, offset: 0, response: CFS_MD_OKAY, length: 1, prev_item_delay: 2
# UVM_INFO ../model/cfs_algn_model.sv(787) @ 705: uvm_test_top.env.model [TX_FIFO] TX FIFO pop - new level: 0, popped entry: [486..645] data: {'had, 'hac, 'h6b, 'h6c}, size: 4, offset: 0, response: CFS_MD_OKAY, length: 0, prev_item_delay: 0
# UVM_INFO ../agent_md/cfs_md_monitor.sv(88) @ 705: uvm_test_top.env.md_tx_agent.monitor [ITEM_END] Monitored item: [666..705] data: {'had, 'hac, 'h6b, 'h6c}, size: 4, offset: 0, response: CFS_MD_ERR, length: 4, prev_item_delay: 63
# UVM_INFO ../model/cfs_algn_model.sv(258) @ 705: uvm_test_top.env.model [RX_FIFO] RX FIFO became empty - reg_block.IRQ.RX_FIFO_EMPTY: 1
# UVM_INFO ../model/cfs_algn_model.sv(312) @ 705: uvm_test_top.env.model [TX_FIFO] TX FIFO became empty - reg_block.IRQ.TX_FIFO_EMPTY: 1
# UVM_INFO ../model/cfs_algn_model.sv(543) @ 725: uvm_test_top.env.model [DEBUG] RX FIFO push - new level: 1, pushed entry: [716..] data: {'h61}, size: 1, offset: 0, response: CFS_MD_OKAY, length: 1, prev_item_delay: 2
# UVM_INFO ../agent_md/cfs_md_monitor.sv(88) @ 725: uvm_test_top.env.md_rx_agent.monitor [ITEM_END] Monitored item: [716..725] data: {'h61}, size: 1, offset: 0, response: CFS_MD_OKAY, length: 1, prev_item_delay: 2
# UVM_INFO ../model/cfs_algn_model.sv(757) @ 735: uvm_test_top.env.model [RX_FIFO] RX FIFO pop - new level: 0, popped entry: [716..725] data: {'h61}, size: 1, offset: 0, response: CFS_MD_OKAY, length: 1, prev_item_delay: 2
# UVM_INFO ../model/cfs_algn_model.sv(258) @ 735: uvm_test_top.env.model [RX_FIFO] RX FIFO became empty - reg_block.IRQ.RX_FIFO_EMPTY: 1
# UVM_INFO ../model/cfs_algn_model.sv(543) @ 785: uvm_test_top.env.model [DEBUG] RX FIFO push - new level: 1, pushed entry: [776..] data: {'h24}, size: 1, offset: 0, response: CFS_MD_OKAY, length: 1, prev_item_delay: 5
# UVM_INFO ../agent_md/cfs_md_monitor.sv(88) @ 785: uvm_test_top.env.md_rx_agent.monitor [ITEM_END] Monitored item: [776..785] data: {'h24}, size: 1, offset: 0, response: CFS_MD_OKAY, length: 1, prev_item_delay: 5
# UVM_INFO ../model/cfs_algn_model.sv(757) @ 795: uvm_test_top.env.model [RX_FIFO] RX FIFO pop - new level: 0, popped entry: [776..785] data: {'h24}, size: 1, offset: 0, response: CFS_MD_OKAY, length: 1, prev_item_delay: 5
# UVM_INFO ../model/cfs_algn_model.sv(847) @ 795: uvm_test_top.env.model [DEBUG1] md_offset:         0, md_size:         1##########################################################
# UVM_INFO ../model/cfs_algn_model.sv(258) @ 795: uvm_test_top.env.model [RX_FIFO] RX FIFO became empty - reg_block.IRQ.RX_FIFO_EMPTY: 1
# UVM_INFO ../model/cfs_algn_model.sv(772) @ 805: uvm_test_top.env.model [TX_FIFO] TX FIFO push - new level: 1, pushed entry: [656..785] data: {'hf5, 'hd5, 'h61, 'h24}, size: 4, offset: 0, response: CFS_MD_OKAY, length: 0, prev_item_delay: 0
# UVM_INFO verilog_src/uvm-1.1d/src/reg/uvm_reg_predictor.svh(223) @ 1035: uvm_test_top.env.predictor [REG_PREDICT] Observed READ transaction to register reg_block.STATUS: value='h10000
# UVM_INFO verilog_src/uvm-1.1d/src/reg/uvm_reg_predictor.svh(218) @ 1165: uvm_test_top.env.predictor [REG_PREDICT] Observed WRITE transaction to register reg_block.IRQ: value='h1 : updated value = 'h4
# UVM_INFO verilog_src/uvm-1.1d/src/base/uvm_objection.svh(1267) @ 1185: reporter [TEST_DONE] 'run' phase is ready to proceed to the 'extract' phase
# 
# --- UVM Report Summary ---
# 
# Quit count :     0 of     1
# ** Report counts by severity
# UVM_INFO :   54
# UVM_WARNING :    0
# UVM_ERROR :    0
# UVM_FATAL :    0
# ** Report counts by id
# [3_3_3]     2
# [DEBUG]     8
# [DEBUG1]     2
# [ITEM_END]     9
# [MAXQUITSET]     1
# [Questa UVM]     2
# [REG_PREDICT]     8
# [RNTST]     1
# [RX_FIFO]    16
# [TEST_DONE]     1
# [TX_FIFO]     4
# ** Note: $finish    : /home/user/Downloads/questasim/linux_x86_64/../verilog_src/uvm-1.1d/src/base/uvm_root.svh(430)
#    Time: 1185 ns  Iteration: 56  Instance: /testbench
# Saving coverage database on exit...
# End time: 06:05:12 on May 11,2026, Elapsed time: 0:00:05
# Errors: 0, Warnings: 16

[INFO] Simulation Completed

make[2]: Leaving directory '/home/user/Documents/aligner_repo-main-1/aligner_repo-main/tb/sim'
