tb/sim/logs/cfs_algn_md_tests_target_length.log
Reading pref.tcl

# 2021.2_1

# vsim -coverage -c work.testbench "+UVM_TESTNAME=cfs_algn_md_tests_target_length" "+sv_seed=70487592" "+UVM_MAX_QUIT_COUNT=1" "+access+rw" -f messages.f -do "do ../../tb/sim/toggle_exclude.do; coverage save -onexit ucdb/cfs_algn_md_tests_target_length.ucdb; run -all; quit;" 
# Start time: 06:06:27 on May 11,2026
# ** Note: (vsim-8009) Loading existing optimized design _opt
# //  Questa Sim-64
# //  Version 2021.2_1 linux_x86_64 May 15 2021
# //
# //  Copyright 1991-2021 Mentor Graphics Corporation
# //  All Rights Reserved.
# //
# //  QuestaSim and its associated documentation contain trade
# //  secrets and commercial or financial information that are the property of
# //  Mentor Graphics Corporation and are privileged, confidential,
# //  and exempt from disclosure under the Freedom of Information Act,
# //  5 U.S.C. Section 552. Furthermore, this information
# //  is prohibited from disclosure under the Trade Secrets Act,
# //  18 U.S.C. Section 1905.
# //
# Loading sv_std.std
# Loading work.cfs_algn_if(fast)
# Loading work.cfs_apb_if(fast)
# Loading work.cfs_md_if(fast)
# Loading mtiUvm.uvm_pkg(fast)
# Loading work.cfs_algn_reg_pkg(fast)
# Loading work.uvm_ext_pkg(fast)
# Loading work.cfs_md_pkg(fast)
# Loading work.cfs_apb_pkg(fast)
# Loading work.cfs_algn_pkg(fast)
# Loading work.cfs_algn_test_pkg(fast)
# Loading mtiUvm.questa_uvm_pkg(fast)
# Loading work.testbench(fast)
# Loading work.cfs_apb_if(fast__2)
# Loading work.cfs_md_if(fast__2)
# Loading work.cfs_algn_if(fast__2)
# Loading work.cfs_aligner(fast)
# Loading work.cfs_aligner_core(fast)
# Loading work.cfs_rx_ctrl(fast)
# Loading work.cfs_synch(fast)
# Loading work.cfs_synch_fifo(fast)
# Loading work.cfs_tx_ctrl(fast)
# Loading work.cfs_ctrl(fast)
# Loading work.cfs_regs(fast)
# Loading work.cfs_edge_detect(fast)
# Loading work.cfs_edge_detect(fast__1)
# Loading /home/user/Downloads/questasim/uvm-1.1d/linux_x86_64/uvm_dpi.so
# do ../../tb/sim/toggle_exclude.do
# ** Warning: -comment options is supported in post simulation viewcov mode only, ignoring it.
# ** Warning: -comment options is supported in post simulation viewcov mode only, ignoring it.
# ** Warning: -comment options is supported in post simulation viewcov mode only, ignoring it.
# ** Warning: -comment options is supported in post simulation viewcov mode only, ignoring it.
# ** Warning: -comment options is supported in post simulation viewcov mode only, ignoring it.
#  coverage save -onexit ucdb/cfs_algn_md_tests_target_length.ucdb
#  run -all
# ----------------------------------------------------------------
# UVM-1.1d
# (C) 2007-2013 Mentor Graphics Corporation
# (C) 2007-2013 Cadence Design Systems, Inc.
# (C) 2006-2013 Synopsys, Inc.
# (C) 2011-2013 Cypress Semiconductor Corp.
# ----------------------------------------------------------------
# 
#   ***********       IMPORTANT RELEASE NOTES         ************
# 
#   You are using a version of the UVM library that has been compiled
#   with `UVM_NO_DEPRECATED undefined.
#   See http://www.eda.org/svdb/view.php?id=3313 for more details.
# 
#   You are using a version of the UVM library that has been compiled
#   with `UVM_OBJECT_MUST_HAVE_CONSTRUCTOR undefined.
#   See http://www.eda.org/svdb/view.php?id=3770 for more details.
# 
#       (Specify +UVM_NO_RELNOTES to turn off this notice)
# 
# UVM_INFO verilog_src/questa_uvm_pkg-1.2/src/questa_uvm_pkg.sv(277) @ 0: reporter [Questa UVM] QUESTA_UVM-1.2.3
# UVM_INFO verilog_src/questa_uvm_pkg-1.2/src/questa_uvm_pkg.sv(278) @ 0: reporter [Questa UVM]  questa_uvm::init(+struct)
# UVM_INFO @ 0: reporter [RNTST] Running test cfs_algn_md_tests_target_length...
# UVM_INFO @ 0: reporter [MAXQUITSET] '+UVM_MAX_QUIT_COUNT=1' provided on the command line is being applied.
# ** Warning: (vsim-8549) After dropping the illegal, ignore or invalid values, the values list associated with scalar bin 'length_eq_2' in Coverpoint 'length' of Covergroup instance '\/cfs_apb_pkg::cfs_apb_coverage::cover_item ' has converged to empty list. The bin will be taken out of coverage calculation.
#    Time: 0 ns  Iteration: 7  Region: /uvm_pkg::uvm_phase::m_run_phases
# ** Warning: (vsim-8547) After dropping the illegal, ignore or invalid values, the values list associated with fixed-size array sub bin 'length_le_10[1]' in Coverpoint 'length' of Covergroup instance '\/cfs_apb_pkg::cfs_apb_coverage::cover_item ' has converged to empty list. The sub bin will be taken out of coverage calculation.
#    Time: 0 ns  Iteration: 7  Region: /uvm_pkg::uvm_phase::m_run_phases
# ** Warning: (vsim-8547) After dropping the illegal, ignore or invalid values, the values list associated with fixed-size array sub bin 'length_le_10[2]' in Coverpoint 'length' of Covergroup instance '\/cfs_apb_pkg::cfs_apb_coverage::cover_item ' has converged to empty list. The sub bin will be taken out of coverage calculation.
#    Time: 0 ns  Iteration: 7  Region: /uvm_pkg::uvm_phase::m_run_phases
# ** Warning: (vsim-8547) After dropping the illegal, ignore or invalid values, the values list associated with fixed-size array sub bin 'length_le_10[3]' in Coverpoint 'length' of Covergroup instance '\/cfs_apb_pkg::cfs_apb_coverage::cover_item ' has converged to empty list. The sub bin will be taken out of coverage calculation.
#    Time: 0 ns  Iteration: 7  Region: /uvm_pkg::uvm_phase::m_run_phases
# ** Warning: (vsim-8547) After dropping the illegal, ignore or invalid values, the values list associated with fixed-size array sub bin 'length_le_10[4]' in Coverpoint 'length' of Covergroup instance '\/cfs_apb_pkg::cfs_apb_coverage::cover_item ' has converged to empty list. The sub bin will be taken out of coverage calculation.
#    Time: 0 ns  Iteration: 7  Region: /uvm_pkg::uvm_phase::m_run_phases
# ** Warning: (vsim-8547) After dropping the illegal, ignore or invalid values, the values list associated with fixed-size array sub bin 'length_le_10[5]' in Coverpoint 'length' of Covergroup instance '\/cfs_apb_pkg::cfs_apb_coverage::cover_item ' has converged to empty list. The sub bin will be taken out of coverage calculation.
#    Time: 0 ns  Iteration: 7  Region: /uvm_pkg::uvm_phase::m_run_phases
# ** Warning: (vsim-8547) After dropping the illegal, ignore or invalid values, the values list associated with fixed-size array sub bin 'length_le_10[6]' in Coverpoint 'length' of Covergroup instance '\/cfs_apb_pkg::cfs_apb_coverage::cover_item ' has converged to empty list. The sub bin will be taken out of coverage calculation.
#    Time: 0 ns  Iteration: 7  Region: /uvm_pkg::uvm_phase::m_run_phases
# ** Warning: (vsim-8547) After dropping the illegal, ignore or invalid values, the values list associated with fixed-size array sub bin 'length_le_10[7]' in Coverpoint 'length' of Covergroup instance '\/cfs_apb_pkg::cfs_apb_coverage::cover_item ' has converged to empty list. The sub bin will be taken out of coverage calculation.
#    Time: 0 ns  Iteration: 7  Region: /uvm_pkg::uvm_phase::m_run_phases
# ** Warning: (vsim-8549) After dropping the illegal, ignore or invalid values, the values list associated with scalar bin 'length_gt_10' in Coverpoint 'length' of Covergroup instance '\/cfs_apb_pkg::cfs_apb_coverage::cover_item ' has converged to empty list. The bin will be taken out of coverage calculation.
#    Time: 0 ns  Iteration: 7  Region: /uvm_pkg::uvm_phase::m_run_phases
# ** Warning: (vsim-12051) Illegal assignment in cast to class work.cfs_md_pkg::cfs_md_sequencer_base_master from class work.uvm_ext_pkg::uvm_ext_sequencer #(class work.cfs_md_pkg::cfs_md_item_drv_master)
#    Time: 0 ns  Iteration: 32  Process: /uvm_pkg::uvm_phase::m_run_phases/#FORK#1847_7fefe44bd36 File: ../env/cfs_algn_env.sv Line: 129
# ** Warning: (vsim-12051) Illegal assignment in cast to class work.cfs_md_pkg::cfs_md_sequencer_base_slave from class work.uvm_ext_pkg::uvm_ext_sequencer #(class work.cfs_md_pkg::cfs_md_item_drv_slave)
#    Time: 0 ns  Iteration: 32  Process: /uvm_pkg::uvm_phase::m_run_phases/#FORK#1847_7fefe44bd36 File: ../env/cfs_algn_env.sv Line: 130
# UVM_INFO verilog_src/uvm-1.1d/src/reg/uvm_reg_predictor.svh(218) @ 165: uvm_test_top.env.predictor [REG_PREDICT] Observed WRITE transaction to register reg_block.IRQEN: value='h13 : updated value = 'h13
# UVM_INFO verilog_src/uvm-1.1d/src/reg/uvm_reg_predictor.svh(218) @ 195: uvm_test_top.env.predictor [REG_PREDICT] Observed WRITE transaction to register reg_block.CTRL: value='h2 : updated value = 'h2
# UVM_INFO verilog_src/uvm-1.1d/src/reg/uvm_reg_predictor.svh(218) @ 235: uvm_test_top.env.predictor [REG_PREDICT] Observed WRITE transaction to register reg_block.IRQ: value='hd : updated value = 'h0
# UVM_INFO verilog_src/uvm-1.1d/src/reg/uvm_reg_predictor.svh(218) @ 315: uvm_test_top.env.predictor [REG_PREDICT] Observed WRITE transaction to register reg_block.CTRL: value='h2 : updated value = 'h2
# UVM_INFO ../model/cfs_algn_model.sv(543) @ 355: uvm_test_top.env.model [DEBUG] RX FIFO push - new level: 1, pushed entry: [346..] data: {'ha5}, size: 1, offset: 0, response: CFS_MD_OKAY, length: 1, prev_item_delay: 31
# UVM_INFO ../agent_md/cfs_md_monitor.sv(88) @ 355: uvm_test_top.env.md_rx_agent.monitor [ITEM_END] Monitored item: [346..355] data: {'ha5}, size: 1, offset: 0, response: CFS_MD_OKAY, length: 1, prev_item_delay: 31
# UVM_INFO ../model/cfs_algn_model.sv(757) @ 365: uvm_test_top.env.model [RX_FIFO] RX FIFO pop - new level: 0, popped entry: [346..355] data: {'ha5}, size: 1, offset: 0, response: CFS_MD_OKAY, length: 1, prev_item_delay: 31
# UVM_INFO ../model/cfs_algn_model.sv(258) @ 365: uvm_test_top.env.model [RX_FIFO] RX FIFO became empty - reg_block.IRQ.RX_FIFO_EMPTY: 1
# UVM_INFO ../model/cfs_algn_model.sv(543) @ 385: uvm_test_top.env.model [DEBUG] RX FIFO push - new level: 1, pushed entry: [376..] data: {'h89}, size: 1, offset: 0, response: CFS_MD_OKAY, length: 1, prev_item_delay: 2
# UVM_INFO ../agent_md/cfs_md_monitor.sv(88) @ 385: uvm_test_top.env.md_rx_agent.monitor [ITEM_END] Monitored item: [376..385] data: {'h89}, size: 1, offset: 0, response: CFS_MD_OKAY, length: 1, prev_item_delay: 2
# UVM_INFO ../model/cfs_algn_model.sv(757) @ 395: uvm_test_top.env.model [RX_FIFO] RX FIFO pop - new level: 0, popped entry: [376..385] data: {'h89}, size: 1, offset: 0, response: CFS_MD_OKAY, length: 1, prev_item_delay: 2
# UVM_INFO ../model/cfs_algn_model.sv(847) @ 395: uvm_test_top.env.model [DEBUG1] md_offset:         0, md_size:         1##########################################################
# UVM_INFO ../model/cfs_algn_model.sv(258) @ 395: uvm_test_top.env.model [RX_FIFO] RX FIFO became empty - reg_block.IRQ.RX_FIFO_EMPTY: 1
# UVM_INFO ../model/cfs_algn_model.sv(772) @ 405: uvm_test_top.env.model [TX_FIFO] TX FIFO push - new level: 1, pushed entry: [346..385] data: {'ha5, 'h89}, size: 2, offset: 0, response: CFS_MD_OKAY, length: 0, prev_item_delay: 0
# UVM_INFO ../model/cfs_algn_model.sv(543) @ 415: uvm_test_top.env.model [DEBUG] RX FIFO push - new level: 1, pushed entry: [406..] data: {'h25}, size: 1, offset: 0, response: CFS_MD_OKAY, length: 1, prev_item_delay: 2
# UVM_INFO ../agent_md/cfs_md_monitor.sv(88) @ 415: uvm_test_top.env.md_rx_agent.monitor [ITEM_END] Monitored item: [406..415] data: {'h25}, size: 1, offset: 0, response: CFS_MD_OKAY, length: 1, prev_item_delay: 2
# UVM_INFO ../model/cfs_algn_model.sv(757) @ 425: uvm_test_top.env.model [RX_FIFO] RX FIFO pop - new level: 0, popped entry: [406..415] data: {'h25}, size: 1, offset: 0, response: CFS_MD_OKAY, length: 1, prev_item_delay: 2
# UVM_INFO ../model/cfs_algn_model.sv(258) @ 425: uvm_test_top.env.model [RX_FIFO] RX FIFO became empty - reg_block.IRQ.RX_FIFO_EMPTY: 1
# UVM_INFO ../model/cfs_algn_model.sv(543) @ 445: uvm_test_top.env.model [DEBUG] RX FIFO push - new level: 1, pushed entry: [436..] data: {'hc1}, size: 1, offset: 0, response: CFS_MD_OKAY, length: 1, prev_item_delay: 2
# UVM_INFO ../agent_md/cfs_md_monitor.sv(88) @ 445: uvm_test_top.env.md_rx_agent.monitor [ITEM_END] Monitored item: [436..445] data: {'hc1}, size: 1, offset: 0, response: CFS_MD_OKAY, length: 1, prev_item_delay: 2
# UVM_INFO ../model/cfs_algn_model.sv(757) @ 455: uvm_test_top.env.model [RX_FIFO] RX FIFO pop - new level: 0, popped entry: [436..445] data: {'hc1}, size: 1, offset: 0, response: CFS_MD_OKAY, length: 1, prev_item_delay: 2
# UVM_INFO ../model/cfs_algn_model.sv(847) @ 455: uvm_test_top.env.model [DEBUG1] md_offset:         0, md_size:         1##########################################################
# UVM_INFO ../model/cfs_algn_model.sv(258) @ 455: uvm_test_top.env.model [RX_FIFO] RX FIFO became empty - reg_block.IRQ.RX_FIFO_EMPTY: 1
# UVM_INFO ../model/cfs_algn_model.sv(772) @ 465: uvm_test_top.env.model [TX_FIFO] TX FIFO push - new level: 2, pushed entry: [406..445] data: {'h25, 'hc1}, size: 2, offset: 0, response: CFS_MD_OKAY, length: 0, prev_item_delay: 0
# UVM_INFO ../model/cfs_algn_model.sv(787) @ 475: uvm_test_top.env.model [TX_FIFO] TX FIFO pop - new level: 1, popped entry: [346..385] data: {'ha5, 'h89}, size: 2, offset: 0, response: CFS_MD_OKAY, length: 0, prev_item_delay: 0
# UVM_INFO ../agent_md/cfs_md_monitor.sv(88) @ 475: uvm_test_top.env.md_tx_agent.monitor [ITEM_END] Monitored item: [406..475] data: {'ha5, 'h89}, size: 2, offset: 0, response: CFS_MD_ERR, length: 7, prev_item_delay: 37
# UVM_INFO ../model/cfs_algn_model.sv(787) @ 565: uvm_test_top.env.model [TX_FIFO] TX FIFO pop - new level: 0, popped entry: [406..445] data: {'h25, 'hc1}, size: 2, offset: 0, response: CFS_MD_OKAY, length: 0, prev_item_delay: 0
# UVM_INFO ../agent_md/cfs_md_monitor.sv(88) @ 565: uvm_test_top.env.md_tx_agent.monitor [ITEM_END] Monitored item: [476..565] data: {'h25, 'hc1}, size: 2, offset: 0, response: CFS_MD_OKAY, length: 9, prev_item_delay: 0
# UVM_INFO ../model/cfs_algn_model.sv(312) @ 565: uvm_test_top.env.model [TX_FIFO] TX FIFO became empty - reg_block.IRQ.TX_FIFO_EMPTY: 1
# UVM_INFO ../model/cfs_algn_model.sv(543) @ 875: uvm_test_top.env.model [DEBUG] RX FIFO push - new level: 1, pushed entry: [866..] data: {'hae}, size: 1, offset: 0, response: CFS_MD_OKAY, length: 1, prev_item_delay: 42
# UVM_INFO ../agent_md/cfs_md_monitor.sv(88) @ 875: uvm_test_top.env.md_rx_agent.monitor [ITEM_END] Monitored item: [866..875] data: {'hae}, size: 1, offset: 0, response: CFS_MD_OKAY, length: 1, prev_item_delay: 42
# UVM_INFO ../model/cfs_algn_model.sv(757) @ 885: uvm_test_top.env.model [RX_FIFO] RX FIFO pop - new level: 0, popped entry: [866..875] data: {'hae}, size: 1, offset: 0, response: CFS_MD_OKAY, length: 1, prev_item_delay: 42
# UVM_INFO ../model/cfs_algn_model.sv(258) @ 885: uvm_test_top.env.model [RX_FIFO] RX FIFO became empty - reg_block.IRQ.RX_FIFO_EMPTY: 1
# UVM_INFO ../model/cfs_algn_model.sv(543) @ 905: uvm_test_top.env.model [DEBUG] RX FIFO push - new level: 1, pushed entry: [896..] data: {'hfe}, size: 1, offset: 0, response: CFS_MD_OKAY, length: 1, prev_item_delay: 2
# UVM_INFO ../agent_md/cfs_md_monitor.sv(88) @ 905: uvm_test_top.env.md_rx_agent.monitor [ITEM_END] Monitored item: [896..905] data: {'hfe}, size: 1, offset: 0, response: CFS_MD_OKAY, length: 1, prev_item_delay: 2
# UVM_INFO ../model/cfs_algn_model.sv(757) @ 915: uvm_test_top.env.model [RX_FIFO] RX FIFO pop - new level: 0, popped entry: [896..905] data: {'hfe}, size: 1, offset: 0, response: CFS_MD_OKAY, length: 1, prev_item_delay: 2
# UVM_INFO ../model/cfs_algn_model.sv(847) @ 915: uvm_test_top.env.model [DEBUG1] md_offset:         0, md_size:         1##########################################################
# UVM_INFO ../model/cfs_algn_model.sv(258) @ 915: uvm_test_top.env.model [RX_FIFO] RX FIFO became empty - reg_block.IRQ.RX_FIFO_EMPTY: 1
# UVM_INFO ../model/cfs_algn_model.sv(772) @ 925: uvm_test_top.env.model [TX_FIFO] TX FIFO push - new level: 1, pushed entry: [866..905] data: {'hae, 'hfe}, size: 2, offset: 0, response: CFS_MD_OKAY, length: 0, prev_item_delay: 0
# UVM_INFO ../model/cfs_algn_model.sv(543) @ 935: uvm_test_top.env.model [DEBUG] RX FIFO push - new level: 1, pushed entry: [926..] data: {'h28}, size: 1, offset: 0, response: CFS_MD_OKAY, length: 1, prev_item_delay: 2
# UVM_INFO ../agent_md/cfs_md_monitor.sv(88) @ 935: uvm_test_top.env.md_rx_agent.monitor [ITEM_END] Monitored item: [926..935] data: {'h28}, size: 1, offset: 0, response: CFS_MD_OKAY, length: 1, prev_item_delay: 2
# UVM_INFO ../model/cfs_algn_model.sv(757) @ 945: uvm_test_top.env.model [RX_FIFO] RX FIFO pop - new level: 0, popped entry: [926..935] data: {'h28}, size: 1, offset: 0, response: CFS_MD_OKAY, length: 1, prev_item_delay: 2
# UVM_INFO ../model/cfs_algn_model.sv(258) @ 945: uvm_test_top.env.model [RX_FIFO] RX FIFO became empty - reg_block.IRQ.RX_FIFO_EMPTY: 1
# UVM_INFO ../model/cfs_algn_model.sv(543) @ 965: uvm_test_top.env.model [DEBUG] RX FIFO push - new level: 1, pushed entry: [956..] data: {'hd7}, size: 1, offset: 0, response: CFS_MD_OKAY, length: 1, prev_item_delay: 2
# UVM_INFO ../agent_md/cfs_md_monitor.sv(88) @ 965: uvm_test_top.env.md_rx_agent.monitor [ITEM_END] Monitored item: [956..965] data: {'hd7}, size: 1, offset: 0, response: CFS_MD_OKAY, length: 1, prev_item_delay: 2
# UVM_INFO ../model/cfs_algn_model.sv(757) @ 975: uvm_test_top.env.model [RX_FIFO] RX FIFO pop - new level: 0, popped entry: [956..965] data: {'hd7}, size: 1, offset: 0, response: CFS_MD_OKAY, length: 1, prev_item_delay: 2
# UVM_INFO ../model/cfs_algn_model.sv(847) @ 975: uvm_test_top.env.model [DEBUG1] md_offset:         0, md_size:         1##########################################################
# UVM_INFO ../model/cfs_algn_model.sv(258) @ 975: uvm_test_top.env.model [RX_FIFO] RX FIFO became empty - reg_block.IRQ.RX_FIFO_EMPTY: 1
# UVM_INFO ../model/cfs_algn_model.sv(772) @ 985: uvm_test_top.env.model [TX_FIFO] TX FIFO push - new level: 2, pushed entry: [926..965] data: {'h28, 'hd7}, size: 2, offset: 0, response: CFS_MD_OKAY, length: 0, prev_item_delay: 0
# UVM_INFO ../model/cfs_algn_model.sv(543) @ 995: uvm_test_top.env.model [DEBUG] RX FIFO push - new level: 1, pushed entry: [986..] data: {'h23}, size: 1, offset: 0, response: CFS_MD_OKAY, length: 1, prev_item_delay: 2
# UVM_INFO ../agent_md/cfs_md_monitor.sv(88) @ 995: uvm_test_top.env.md_rx_agent.monitor [ITEM_END] Monitored item: [986..995] data: {'h23}, size: 1, offset: 0, response: CFS_MD_OKAY, length: 1, prev_item_delay: 2
# UVM_INFO ../model/cfs_algn_model.sv(757) @ 1005: uvm_test_top.env.model [RX_FIFO] RX FIFO pop - new level: 0, popped entry: [986..995] data: {'h23}, size: 1, offset: 0, response: CFS_MD_OKAY, length: 1, prev_item_delay: 2
# UVM_INFO ../model/cfs_algn_model.sv(258) @ 1005: uvm_test_top.env.model [RX_FIFO] RX FIFO became empty - reg_block.IRQ.RX_FIFO_EMPTY: 1
# UVM_INFO ../model/cfs_algn_model.sv(543) @ 1025: uvm_test_top.env.model [DEBUG] RX FIFO push - new level: 1, pushed entry: [1016..] data: {'h64}, size: 1, offset: 0, response: CFS_MD_OKAY, length: 1, prev_item_delay: 2
# UVM_INFO ../model/cfs_algn_model.sv(787) @ 1025: uvm_test_top.env.model [TX_FIFO] TX FIFO pop - new level: 1, popped entry: [866..905] data: {'hae, 'hfe}, size: 2, offset: 0, response: CFS_MD_OKAY, length: 0, prev_item_delay: 0
# UVM_INFO ../agent_md/cfs_md_monitor.sv(88) @ 1025: uvm_test_top.env.md_rx_agent.monitor [ITEM_END] Monitored item: [1016..1025] data: {'h64}, size: 1, offset: 0, response: CFS_MD_OKAY, length: 1, prev_item_delay: 2
# UVM_INFO ../agent_md/cfs_md_monitor.sv(88) @ 1025: uvm_test_top.env.md_tx_agent.monitor [ITEM_END] Monitored item: [926..1025] data: {'hae, 'hfe}, size: 2, offset: 0, response: CFS_MD_ERR, length: 10, prev_item_delay: 36
# UVM_INFO ../model/cfs_algn_model.sv(787) @ 1035: uvm_test_top.env.model [TX_FIFO] TX FIFO pop - new level: 0, popped entry: [926..965] data: {'h28, 'hd7}, size: 2, offset: 0, response: CFS_MD_OKAY, length: 0, prev_item_delay: 0
# UVM_INFO ../model/cfs_algn_model.sv(757) @ 1035: uvm_test_top.env.model [RX_FIFO] RX FIFO pop - new level: 0, popped entry: [1016..1025] data: {'h64}, size: 1, offset: 0, response: CFS_MD_OKAY, length: 1, prev_item_delay: 2
# UVM_INFO ../agent_md/cfs_md_monitor.sv(88) @ 1035: uvm_test_top.env.md_tx_agent.monitor [ITEM_END] Monitored item: [1026..1035] data: {'h28, 'hd7}, size: 2, offset: 0, response: CFS_MD_ERR, length: 1, prev_item_delay: 0
# UVM_INFO ../model/cfs_algn_model.sv(847) @ 1035: uvm_test_top.env.model [DEBUG1] md_offset:         0, md_size:         1##########################################################
# UVM_INFO ../model/cfs_algn_model.sv(312) @ 1035: uvm_test_top.env.model [TX_FIFO] TX FIFO became empty - reg_block.IRQ.TX_FIFO_EMPTY: 1
# UVM_INFO ../model/cfs_algn_model.sv(258) @ 1035: uvm_test_top.env.model [RX_FIFO] RX FIFO became empty - reg_block.IRQ.RX_FIFO_EMPTY: 1
# UVM_INFO ../model/cfs_algn_model.sv(772) @ 1045: uvm_test_top.env.model [TX_FIFO] TX FIFO push - new level: 1, pushed entry: [986..1025] data: {'h23, 'h64}, size: 2, offset: 0, response: CFS_MD_OKAY, length: 0, prev_item_delay: 0
# UVM_INFO ../model/cfs_algn_model.sv(543) @ 1055: uvm_test_top.env.model [DEBUG] RX FIFO push - new level: 1, pushed entry: [1046..] data: {'h1b}, size: 1, offset: 0, response: CFS_MD_OKAY, length: 1, prev_item_delay: 2
# UVM_INFO ../agent_md/cfs_md_monitor.sv(88) @ 1055: uvm_test_top.env.md_rx_agent.monitor [ITEM_END] Monitored item: [1046..1055] data: {'h1b}, size: 1, offset: 0, response: CFS_MD_OKAY, length: 1, prev_item_delay: 2
# UVM_INFO ../model/cfs_algn_model.sv(757) @ 1065: uvm_test_top.env.model [RX_FIFO] RX FIFO pop - new level: 0, popped entry: [1046..1055] data: {'h1b}, size: 1, offset: 0, response: CFS_MD_OKAY, length: 1, prev_item_delay: 2
# UVM_INFO ../model/cfs_algn_model.sv(258) @ 1065: uvm_test_top.env.model [RX_FIFO] RX FIFO became empty - reg_block.IRQ.RX_FIFO_EMPTY: 1
# UVM_INFO ../model/cfs_algn_model.sv(543) @ 1085: uvm_test_top.env.model [DEBUG] RX FIFO push - new level: 1, pushed entry: [1076..] data: {'h7c}, size: 1, offset: 0, response: CFS_MD_OKAY, length: 1, prev_item_delay: 2
# UVM_INFO ../agent_md/cfs_md_monitor.sv(88) @ 1085: uvm_test_top.env.md_rx_agent.monitor [ITEM_END] Monitored item: [1076..1085] data: {'h7c}, size: 1, offset: 0, response: CFS_MD_OKAY, length: 1, prev_item_delay: 2
# UVM_INFO ../model/cfs_algn_model.sv(757) @ 1095: uvm_test_top.env.model [RX_FIFO] RX FIFO pop - new level: 0, popped entry: [1076..1085] data: {'h7c}, size: 1, offset: 0, response: CFS_MD_OKAY, length: 1, prev_item_delay: 2
# UVM_INFO ../model/cfs_algn_model.sv(847) @ 1095: uvm_test_top.env.model [DEBUG1] md_offset:         0, md_size:         1##########################################################
# UVM_INFO ../model/cfs_algn_model.sv(258) @ 1095: uvm_test_top.env.model [RX_FIFO] RX FIFO became empty - reg_block.IRQ.RX_FIFO_EMPTY: 1
# UVM_INFO ../model/cfs_algn_model.sv(772) @ 1105: uvm_test_top.env.model [TX_FIFO] TX FIFO push - new level: 2, pushed entry: [1046..1085] data: {'h1b, 'h7c}, size: 2, offset: 0, response: CFS_MD_OKAY, length: 0, prev_item_delay: 0
# UVM_INFO ../model/cfs_algn_model.sv(787) @ 1125: uvm_test_top.env.model [TX_FIFO] TX FIFO pop - new level: 1, popped entry: [986..1025] data: {'h23, 'h64}, size: 2, offset: 0, response: CFS_MD_OKAY, length: 0, prev_item_delay: 0
# UVM_INFO ../agent_md/cfs_md_monitor.sv(88) @ 1125: uvm_test_top.env.md_tx_agent.monitor [ITEM_END] Monitored item: [1046..1125] data: {'h23, 'h64}, size: 2, offset: 0, response: CFS_MD_OKAY, length: 8, prev_item_delay: 1
# UVM_INFO ../model/cfs_algn_model.sv(787) @ 1155: uvm_test_top.env.model [TX_FIFO] TX FIFO pop - new level: 0, popped entry: [1046..1085] data: {'h1b, 'h7c}, size: 2, offset: 0, response: CFS_MD_OKAY, length: 0, prev_item_delay: 0
# UVM_INFO ../agent_md/cfs_md_monitor.sv(88) @ 1155: uvm_test_top.env.md_tx_agent.monitor [ITEM_END] Monitored item: [1126..1155] data: {'h1b, 'h7c}, size: 2, offset: 0, response: CFS_MD_ERR, length: 3, prev_item_delay: 0
# UVM_INFO ../model/cfs_algn_model.sv(312) @ 1155: uvm_test_top.env.model [TX_FIFO] TX FIFO became empty - reg_block.IRQ.TX_FIFO_EMPTY: 1
# UVM_INFO verilog_src/uvm-1.1d/src/base/uvm_objection.svh(1267) @ 1595: reporter [TEST_DONE] 'run' phase is ready to proceed to the 'extract' phase
# 
# --- UVM Report Summary ---
# 
# Quit count :     0 of     1
# ** Report counts by severity
# UVM_INFO :   84
# UVM_WARNING :    0
# UVM_ERROR :    0
# UVM_FATAL :    0
# ** Report counts by id
# [DEBUG]    12
# [DEBUG1]     6
# [ITEM_END]    18
# [MAXQUITSET]     1
# [Questa UVM]     2
# [REG_PREDICT]     4
# [RNTST]     1
# [RX_FIFO]    24
# [TEST_DONE]     1
# [TX_FIFO]    15
# ** Note: $finish    : /home/user/Downloads/questasim/linux_x86_64/../verilog_src/uvm-1.1d/src/base/uvm_root.svh(430)
#    Time: 1595 ns  Iteration: 54  Instance: /testbench
# Saving coverage database on exit...
# End time: 06:06:31 on May 11,2026, Elapsed time: 0:00:04
# Errors: 0, Warnings: 16
