tb/sim/logs/cfs_algn_md_tests_3_2_2_transcript.log
Reading pref.tcl

# 2021.2_1

# vsim -coverage -c work.testbench "+UVM_TESTNAME=cfs_algn_md_tests_3_2_2" "+sv_seed=111169330" "+UVM_MAX_QUIT_COUNT=1" "+access+rw" -f messages.f -do "do ../../tb/sim/toggle_exclude.do; coverage save -onexit ucdb/cfs_algn_md_tests_3_2_2.ucdb; run -all; quit;" 
# Start time: 06:04:27 on May 11,2026
# ** Note: (vsim-8009) Loading existing optimized design _opt
# //  Questa Sim-64
# //  Version 2021.2_1 linux_x86_64 May 15 2021
# //
# //  Copyright 1991-2021 Mentor Graphics Corporation
# //  All Rights Reserved.
# //
# //  QuestaSim and its associated documentation contain trade
# //  secrets and commercial or financial information that are the property of
# //  Mentor Graphics Corporation and are privileged, confidential,
# //  and exempt from disclosure under the Freedom of Information Act,
# //  5 U.S.C. Section 552. Furthermore, this information
# //  is prohibited from disclosure under the Trade Secrets Act,
# //  18 U.S.C. Section 1905.
# //
# Loading sv_std.std
# Loading work.cfs_algn_if(fast)
# Loading work.cfs_apb_if(fast)
# Loading work.cfs_md_if(fast)
# Loading mtiUvm.uvm_pkg(fast)
# Loading work.cfs_algn_reg_pkg(fast)
# Loading work.uvm_ext_pkg(fast)
# Loading work.cfs_md_pkg(fast)
# Loading work.cfs_apb_pkg(fast)
# Loading work.cfs_algn_pkg(fast)
# Loading work.cfs_algn_test_pkg(fast)
# Loading mtiUvm.questa_uvm_pkg(fast)
# Loading work.testbench(fast)
# Loading work.cfs_apb_if(fast__2)
# Loading work.cfs_md_if(fast__2)
# Loading work.cfs_algn_if(fast__2)
# Loading work.cfs_aligner(fast)
# Loading work.cfs_aligner_core(fast)
# Loading work.cfs_rx_ctrl(fast)
# Loading work.cfs_synch(fast)
# Loading work.cfs_synch_fifo(fast)
# Loading work.cfs_tx_ctrl(fast)
# Loading work.cfs_ctrl(fast)
# Loading work.cfs_regs(fast)
# Loading work.cfs_edge_detect(fast)
# Loading work.cfs_edge_detect(fast__1)
# Loading /home/user/Downloads/questasim/uvm-1.1d/linux_x86_64/uvm_dpi.so
# do ../../tb/sim/toggle_exclude.do
# ** Warning: -comment options is supported in post simulation viewcov mode only, ignoring it.
# ** Warning: -comment options is supported in post simulation viewcov mode only, ignoring it.
# ** Warning: -comment options is supported in post simulation viewcov mode only, ignoring it.
# ** Warning: -comment options is supported in post simulation viewcov mode only, ignoring it.
# ** Warning: -comment options is supported in post simulation viewcov mode only, ignoring it.
#  coverage save -onexit ucdb/cfs_algn_md_tests_3_2_2.ucdb
#  run -all
# ----------------------------------------------------------------
# UVM-1.1d
# (C) 2007-2013 Mentor Graphics Corporation
# (C) 2007-2013 Cadence Design Systems, Inc.
# (C) 2006-2013 Synopsys, Inc.
# (C) 2011-2013 Cypress Semiconductor Corp.
# ----------------------------------------------------------------
# 
#   ***********       IMPORTANT RELEASE NOTES         ************
# 
#   You are using a version of the UVM library that has been compiled
#   with `UVM_NO_DEPRECATED undefined.
#   See http://www.eda.org/svdb/view.php?id=3313 for more details.
# 
#   You are using a version of the UVM library that has been compiled
#   with `UVM_OBJECT_MUST_HAVE_CONSTRUCTOR undefined.
#   See http://www.eda.org/svdb/view.php?id=3770 for more details.
# 
#       (Specify +UVM_NO_RELNOTES to turn off this notice)
# 
# UVM_INFO verilog_src/questa_uvm_pkg-1.2/src/questa_uvm_pkg.sv(277) @ 0: reporter [Questa UVM] QUESTA_UVM-1.2.3
# UVM_INFO verilog_src/questa_uvm_pkg-1.2/src/questa_uvm_pkg.sv(278) @ 0: reporter [Questa UVM]  questa_uvm::init(+struct)
# UVM_INFO @ 0: reporter [RNTST] Running test cfs_algn_md_tests_3_2_2...
# UVM_INFO @ 0: reporter [MAXQUITSET] '+UVM_MAX_QUIT_COUNT=1' provided on the command line is being applied.
# ** Warning: (vsim-8549) After dropping the illegal, ignore or invalid values, the values list associated with scalar bin 'length_eq_2' in Coverpoint 'length' of Covergroup instance '\/cfs_apb_pkg::cfs_apb_coverage::cover_item ' has converged to empty list. The bin will be taken out of coverage calculation.
#    Time: 0 ns  Iteration: 7  Region: /uvm_pkg::uvm_phase::m_run_phases
# ** Warning: (vsim-8547) After dropping the illegal, ignore or invalid values, the values list associated with fixed-size array sub bin 'length_le_10[1]' in Coverpoint 'length' of Covergroup instance '\/cfs_apb_pkg::cfs_apb_coverage::cover_item ' has converged to empty list. The sub bin will be taken out of coverage calculation.
#    Time: 0 ns  Iteration: 7  Region: /uvm_pkg::uvm_phase::m_run_phases
# ** Warning: (vsim-8547) After dropping the illegal, ignore or invalid values, the values list associated with fixed-size array sub bin 'length_le_10[2]' in Coverpoint 'length' of Covergroup instance '\/cfs_apb_pkg::cfs_apb_coverage::cover_item ' has converged to empty list. The sub bin will be taken out of coverage calculation.
#    Time: 0 ns  Iteration: 7  Region: /uvm_pkg::uvm_phase::m_run_phases
# ** Warning: (vsim-8547) After dropping the illegal, ignore or invalid values, the values list associated with fixed-size array sub bin 'length_le_10[3]' in Coverpoint 'length' of Covergroup instance '\/cfs_apb_pkg::cfs_apb_coverage::cover_item ' has converged to empty list. The sub bin will be taken out of coverage calculation.
#    Time: 0 ns  Iteration: 7  Region: /uvm_pkg::uvm_phase::m_run_phases
# ** Warning: (vsim-8547) After dropping the illegal, ignore or invalid values, the values list associated with fixed-size array sub bin 'length_le_10[4]' in Coverpoint 'length' of Covergroup instance '\/cfs_apb_pkg::cfs_apb_coverage::cover_item ' has converged to empty list. The sub bin will be taken out of coverage calculation.
#    Time: 0 ns  Iteration: 7  Region: /uvm_pkg::uvm_phase::m_run_phases
# ** Warning: (vsim-8547) After dropping the illegal, ignore or invalid values, the values list associated with fixed-size array sub bin 'length_le_10[5]' in Coverpoint 'length' of Covergroup instance '\/cfs_apb_pkg::cfs_apb_coverage::cover_item ' has converged to empty list. The sub bin will be taken out of coverage calculation.
#    Time: 0 ns  Iteration: 7  Region: /uvm_pkg::uvm_phase::m_run_phases
# ** Warning: (vsim-8547) After dropping the illegal, ignore or invalid values, the values list associated with fixed-size array sub bin 'length_le_10[6]' in Coverpoint 'length' of Covergroup instance '\/cfs_apb_pkg::cfs_apb_coverage::cover_item ' has converged to empty list. The sub bin will be taken out of coverage calculation.
#    Time: 0 ns  Iteration: 7  Region: /uvm_pkg::uvm_phase::m_run_phases
# ** Warning: (vsim-8547) After dropping the illegal, ignore or invalid values, the values list associated with fixed-size array sub bin 'length_le_10[7]' in Coverpoint 'length' of Covergroup instance '\/cfs_apb_pkg::cfs_apb_coverage::cover_item ' has converged to empty list. The sub bin will be taken out of coverage calculation.
#    Time: 0 ns  Iteration: 7  Region: /uvm_pkg::uvm_phase::m_run_phases
# ** Warning: (vsim-8549) After dropping the illegal, ignore or invalid values, the values list associated with scalar bin 'length_gt_10' in Coverpoint 'length' of Covergroup instance '\/cfs_apb_pkg::cfs_apb_coverage::cover_item ' has converged to empty list. The bin will be taken out of coverage calculation.
#    Time: 0 ns  Iteration: 7  Region: /uvm_pkg::uvm_phase::m_run_phases
# ** Warning: (vsim-12051) Illegal assignment in cast to class work.cfs_md_pkg::cfs_md_sequencer_base_master from class work.uvm_ext_pkg::uvm_ext_sequencer #(class work.cfs_md_pkg::cfs_md_item_drv_master)
#    Time: 0 ns  Iteration: 32  Process: /uvm_pkg::uvm_phase::m_run_phases/#FORK#1847_7fefe44bd36 File: ../env/cfs_algn_env.sv Line: 129
# ** Warning: (vsim-12051) Illegal assignment in cast to class work.cfs_md_pkg::cfs_md_sequencer_base_slave from class work.uvm_ext_pkg::uvm_ext_sequencer #(class work.cfs_md_pkg::cfs_md_item_drv_slave)
#    Time: 0 ns  Iteration: 32  Process: /uvm_pkg::uvm_phase::m_run_phases/#FORK#1847_7fefe44bd36 File: ../env/cfs_algn_env.sv Line: 130
# UVM_INFO verilog_src/uvm-1.1d/src/reg/uvm_reg_predictor.svh(218) @ 165: uvm_test_top.env.predictor [REG_PREDICT] Observed WRITE transaction to register reg_block.IRQEN: value='h13 : updated value = 'h13
# UVM_INFO verilog_src/uvm-1.1d/src/reg/uvm_reg_predictor.svh(218) @ 195: uvm_test_top.env.predictor [REG_PREDICT] Observed WRITE transaction to register reg_block.CTRL: value='h2 : updated value = 'h2
# UVM_INFO verilog_src/uvm-1.1d/src/reg/uvm_reg_predictor.svh(218) @ 235: uvm_test_top.env.predictor [REG_PREDICT] Observed WRITE transaction to register reg_block.IRQ: value='hd : updated value = 'h0
# UVM_INFO verilog_src/uvm-1.1d/src/reg/uvm_reg_predictor.svh(218) @ 315: uvm_test_top.env.predictor [REG_PREDICT] Observed WRITE transaction to register reg_block.CTRL: value='h4 : updated value = 'h4
# UVM_INFO verilog_src/uvm-1.1d/src/reg/uvm_reg_predictor.svh(223) @ 365: uvm_test_top.env.predictor [REG_PREDICT] Observed READ transaction to register reg_block.CTRL: value='h4
# UVM_INFO ../model/cfs_algn_model.sv(543) @ 425: uvm_test_top.env.model [DEBUG] RX FIFO push - new level: 1, pushed entry: [416..] data: {'h0a, 'hc5, 'h07, 'h86}, size: 4, offset: 0, response: CFS_MD_OKAY, length: 1, prev_item_delay: 38
# UVM_INFO ../agent_md/cfs_md_monitor.sv(88) @ 425: uvm_test_top.env.md_rx_agent.monitor [ITEM_END] Monitored item: [416..425] data: {'h0a, 'hc5, 'h07, 'h86}, size: 4, offset: 0, response: CFS_MD_OKAY, length: 1, prev_item_delay: 38
# UVM_INFO ../model/cfs_algn_model.sv(757) @ 435: uvm_test_top.env.model [RX_FIFO] RX FIFO pop - new level: 0, popped entry: [416..425] data: {'h0a, 'hc5, 'h07, 'h86}, size: 4, offset: 0, response: CFS_MD_OKAY, length: 1, prev_item_delay: 38
# UVM_INFO ../model/cfs_algn_model.sv(847) @ 435: uvm_test_top.env.model [DEBUG1] md_offset:         0, md_size:         4##########################################################
# UVM_INFO ../model/cfs_algn_model.sv(258) @ 435: uvm_test_top.env.model [RX_FIFO] RX FIFO became empty - reg_block.IRQ.RX_FIFO_EMPTY: 1
# UVM_INFO ../model/cfs_algn_model.sv(772) @ 445: uvm_test_top.env.model [TX_FIFO] TX FIFO push - new level: 1, pushed entry: [416..425] data: {'h0a, 'hc5, 'h07, 'h86}, size: 4, offset: 0, response: CFS_MD_OKAY, length: 0, prev_item_delay: 0
# UVM_INFO ../model/cfs_algn_model.sv(543) @ 455: uvm_test_top.env.model [DEBUG] RX FIFO push - new level: 1, pushed entry: [446..] data: {'h68, 'h1a, 'h30, 'h1b}, size: 4, offset: 0, response: CFS_MD_OKAY, length: 1, prev_item_delay: 2
# UVM_INFO ../agent_md/cfs_md_monitor.sv(88) @ 455: uvm_test_top.env.md_rx_agent.monitor [ITEM_END] Monitored item: [446..455] data: {'h68, 'h1a, 'h30, 'h1b}, size: 4, offset: 0, response: CFS_MD_OKAY, length: 1, prev_item_delay: 2
# UVM_INFO ../model/cfs_algn_model.sv(757) @ 465: uvm_test_top.env.model [RX_FIFO] RX FIFO pop - new level: 0, popped entry: [446..455] data: {'h68, 'h1a, 'h30, 'h1b}, size: 4, offset: 0, response: CFS_MD_OKAY, length: 1, prev_item_delay: 2
# UVM_INFO ../model/cfs_algn_model.sv(847) @ 465: uvm_test_top.env.model [DEBUG1] md_offset:         0, md_size:         4##########################################################
# UVM_INFO ../model/cfs_algn_model.sv(258) @ 465: uvm_test_top.env.model [RX_FIFO] RX FIFO became empty - reg_block.IRQ.RX_FIFO_EMPTY: 1
# UVM_INFO ../model/cfs_algn_model.sv(772) @ 475: uvm_test_top.env.model [TX_FIFO] TX FIFO push - new level: 2, pushed entry: [446..455] data: {'h68, 'h1a, 'h30, 'h1b}, size: 4, offset: 0, response: CFS_MD_OKAY, length: 0, prev_item_delay: 0
# UVM_INFO ../model/cfs_algn_model.sv(787) @ 475: uvm_test_top.env.model [TX_FIFO] TX FIFO pop - new level: 1, popped entry: [416..425] data: {'h0a, 'hc5, 'h07, 'h86}, size: 4, offset: 0, response: CFS_MD_OKAY, length: 0, prev_item_delay: 0
# UVM_INFO ../agent_md/cfs_md_monitor.sv(88) @ 475: uvm_test_top.env.md_tx_agent.monitor [ITEM_END] Monitored item: [446..475] data: {'h0a, 'hc5, 'h07, 'h86}, size: 4, offset: 0, response: CFS_MD_OKAY, length: 3, prev_item_delay: 41
# UVM_INFO ../model/cfs_algn_model.sv(787) @ 505: uvm_test_top.env.model [TX_FIFO] TX FIFO pop - new level: 0, popped entry: [446..455] data: {'h68, 'h1a, 'h30, 'h1b}, size: 4, offset: 0, response: CFS_MD_OKAY, length: 0, prev_item_delay: 0
# UVM_INFO ../agent_md/cfs_md_monitor.sv(88) @ 505: uvm_test_top.env.md_tx_agent.monitor [ITEM_END] Monitored item: [476..505] data: {'h68, 'h1a, 'h30, 'h1b}, size: 4, offset: 0, response: CFS_MD_ERR, length: 3, prev_item_delay: 0
# UVM_INFO ../model/cfs_algn_model.sv(312) @ 505: uvm_test_top.env.model [TX_FIFO] TX FIFO became empty - reg_block.IRQ.TX_FIFO_EMPTY: 1
# UVM_INFO ../model/cfs_algn_model.sv(543) @ 535: uvm_test_top.env.model [DEBUG] RX FIFO push - new level: 1, pushed entry: [526..] data: {'hc4, 'h55, 'h65, 'h99}, size: 4, offset: 0, response: CFS_MD_OKAY, length: 1, prev_item_delay: 7
# UVM_INFO ../agent_md/cfs_md_monitor.sv(88) @ 535: uvm_test_top.env.md_rx_agent.monitor [ITEM_END] Monitored item: [526..535] data: {'hc4, 'h55, 'h65, 'h99}, size: 4, offset: 0, response: CFS_MD_OKAY, length: 1, prev_item_delay: 7
# UVM_INFO ../model/cfs_algn_model.sv(757) @ 545: uvm_test_top.env.model [RX_FIFO] RX FIFO pop - new level: 0, popped entry: [526..535] data: {'hc4, 'h55, 'h65, 'h99}, size: 4, offset: 0, response: CFS_MD_OKAY, length: 1, prev_item_delay: 7
# UVM_INFO ../model/cfs_algn_model.sv(847) @ 545: uvm_test_top.env.model [DEBUG1] md_offset:         0, md_size:         4##########################################################
# UVM_INFO ../model/cfs_algn_model.sv(258) @ 545: uvm_test_top.env.model [RX_FIFO] RX FIFO became empty - reg_block.IRQ.RX_FIFO_EMPTY: 1
# UVM_INFO ../model/cfs_algn_model.sv(772) @ 555: uvm_test_top.env.model [TX_FIFO] TX FIFO push - new level: 1, pushed entry: [526..535] data: {'hc4, 'h55, 'h65, 'h99}, size: 4, offset: 0, response: CFS_MD_OKAY, length: 0, prev_item_delay: 0
# UVM_INFO ../model/cfs_algn_model.sv(543) @ 595: uvm_test_top.env.model [DEBUG] RX FIFO push - new level: 1, pushed entry: [586..] data: {'hda, 'h3b, 'h24, 'h59}, size: 4, offset: 0, response: CFS_MD_OKAY, length: 1, prev_item_delay: 5
# UVM_INFO ../agent_md/cfs_md_monitor.sv(88) @ 595: uvm_test_top.env.md_rx_agent.monitor [ITEM_END] Monitored item: [586..595] data: {'hda, 'h3b, 'h24, 'h59}, size: 4, offset: 0, response: CFS_MD_OKAY, length: 1, prev_item_delay: 5
# UVM_INFO ../model/cfs_algn_model.sv(757) @ 605: uvm_test_top.env.model [RX_FIFO] RX FIFO pop - new level: 0, popped entry: [586..595] data: {'hda, 'h3b, 'h24, 'h59}, size: 4, offset: 0, response: CFS_MD_OKAY, length: 1, prev_item_delay: 5
# UVM_INFO ../model/cfs_algn_model.sv(847) @ 605: uvm_test_top.env.model [DEBUG1] md_offset:         0, md_size:         4##########################################################
# UVM_INFO ../model/cfs_algn_model.sv(258) @ 605: uvm_test_top.env.model [RX_FIFO] RX FIFO became empty - reg_block.IRQ.RX_FIFO_EMPTY: 1
# UVM_INFO ../model/cfs_algn_model.sv(772) @ 615: uvm_test_top.env.model [TX_FIFO] TX FIFO push - new level: 2, pushed entry: [586..595] data: {'hda, 'h3b, 'h24, 'h59}, size: 4, offset: 0, response: CFS_MD_OKAY, length: 0, prev_item_delay: 0
# UVM_INFO ../model/cfs_algn_model.sv(787) @ 615: uvm_test_top.env.model [TX_FIFO] TX FIFO pop - new level: 1, popped entry: [526..535] data: {'hc4, 'h55, 'h65, 'h99}, size: 4, offset: 0, response: CFS_MD_OKAY, length: 0, prev_item_delay: 0
# UVM_INFO ../agent_md/cfs_md_monitor.sv(88) @ 615: uvm_test_top.env.md_tx_agent.monitor [ITEM_END] Monitored item: [556..615] data: {'hc4, 'h55, 'h65, 'h99}, size: 4, offset: 0, response: CFS_MD_ERR, length: 6, prev_item_delay: 5
# UVM_INFO ../model/cfs_algn_model.sv(787) @ 625: uvm_test_top.env.model [TX_FIFO] TX FIFO pop - new level: 0, popped entry: [586..595] data: {'hda, 'h3b, 'h24, 'h59}, size: 4, offset: 0, response: CFS_MD_OKAY, length: 0, prev_item_delay: 0
# UVM_INFO ../agent_md/cfs_md_monitor.sv(88) @ 625: uvm_test_top.env.md_tx_agent.monitor [ITEM_END] Monitored item: [616..625] data: {'hda, 'h3b, 'h24, 'h59}, size: 4, offset: 0, response: CFS_MD_ERR, length: 1, prev_item_delay: 0
# UVM_INFO ../model/cfs_algn_model.sv(312) @ 625: uvm_test_top.env.model [TX_FIFO] TX FIFO became empty - reg_block.IRQ.TX_FIFO_EMPTY: 1
# UVM_INFO ../model/cfs_algn_model.sv(543) @ 665: uvm_test_top.env.model [DEBUG] RX FIFO push - new level: 1, pushed entry: [656..] data: {'h01, 'hc6, 'h91, 'haa}, size: 4, offset: 0, response: CFS_MD_OKAY, length: 1, prev_item_delay: 6
# UVM_INFO ../agent_md/cfs_md_monitor.sv(88) @ 665: uvm_test_top.env.md_rx_agent.monitor [ITEM_END] Monitored item: [656..665] data: {'h01, 'hc6, 'h91, 'haa}, size: 4, offset: 0, response: CFS_MD_OKAY, length: 1, prev_item_delay: 6
# UVM_INFO ../model/cfs_algn_model.sv(757) @ 675: uvm_test_top.env.model [RX_FIFO] RX FIFO pop - new level: 0, popped entry: [656..665] data: {'h01, 'hc6, 'h91, 'haa}, size: 4, offset: 0, response: CFS_MD_OKAY, length: 1, prev_item_delay: 6
# UVM_INFO ../model/cfs_algn_model.sv(847) @ 675: uvm_test_top.env.model [DEBUG1] md_offset:         0, md_size:         4##########################################################
# UVM_INFO ../model/cfs_algn_model.sv(258) @ 675: uvm_test_top.env.model [RX_FIFO] RX FIFO became empty - reg_block.IRQ.RX_FIFO_EMPTY: 1
# UVM_INFO ../model/cfs_algn_model.sv(772) @ 685: uvm_test_top.env.model [TX_FIFO] TX FIFO push - new level: 1, pushed entry: [656..665] data: {'h01, 'hc6, 'h91, 'haa}, size: 4, offset: 0, response: CFS_MD_OKAY, length: 0, prev_item_delay: 0
# UVM_INFO ../model/cfs_algn_model.sv(787) @ 705: uvm_test_top.env.model [TX_FIFO] TX FIFO pop - new level: 0, popped entry: [656..665] data: {'h01, 'hc6, 'h91, 'haa}, size: 4, offset: 0, response: CFS_MD_OKAY, length: 0, prev_item_delay: 0
# UVM_INFO ../agent_md/cfs_md_monitor.sv(88) @ 705: uvm_test_top.env.md_tx_agent.monitor [ITEM_END] Monitored item: [686..705] data: {'h01, 'hc6, 'h91, 'haa}, size: 4, offset: 0, response: CFS_MD_ERR, length: 2, prev_item_delay: 6
# UVM_INFO ../model/cfs_algn_model.sv(312) @ 705: uvm_test_top.env.model [TX_FIFO] TX FIFO became empty - reg_block.IRQ.TX_FIFO_EMPTY: 1
# UVM_INFO ../model/cfs_algn_model.sv(378) @ 776: uvm_test_top.env.model [CNT_DROP] Increment reg_block.STATUS.CNT_DROP: 1 due to: CFS_MD_ERR
# UVM_INFO ../agent_md/cfs_md_monitor.sv(88) @ 785: uvm_test_top.env.md_rx_agent.monitor [ITEM_END] Monitored item: [776..785] data: {'hcf, 'h2b, 'he4}, size: 3, offset: 0, response: CFS_MD_ERR, length: 1, prev_item_delay: 11
# UVM_INFO ../model/cfs_algn_model.sv(378) @ 836: uvm_test_top.env.model [CNT_DROP] Increment reg_block.STATUS.CNT_DROP: 2 due to: CFS_MD_ERR
# UVM_INFO ../agent_md/cfs_md_monitor.sv(88) @ 845: uvm_test_top.env.md_rx_agent.monitor [ITEM_END] Monitored item: [836..845] data: {'h29, 'h67, 'h5f}, size: 3, offset: 0, response: CFS_MD_ERR, length: 1, prev_item_delay: 5
# UVM_INFO ../model/cfs_algn_model.sv(378) @ 896: uvm_test_top.env.model [CNT_DROP] Increment reg_block.STATUS.CNT_DROP: 3 due to: CFS_MD_ERR
# UVM_INFO ../agent_md/cfs_md_monitor.sv(88) @ 905: uvm_test_top.env.md_rx_agent.monitor [ITEM_END] Monitored item: [896..905] data: {'hbe, 'h41}, size: 2, offset: 1, response: CFS_MD_ERR, length: 1, prev_item_delay: 5
# UVM_INFO ../model/cfs_algn_model.sv(378) @ 946: uvm_test_top.env.model [CNT_DROP] Increment reg_block.STATUS.CNT_DROP: 4 due to: CFS_MD_ERR
# UVM_INFO ../agent_md/cfs_md_monitor.sv(88) @ 955: uvm_test_top.env.md_rx_agent.monitor [ITEM_END] Monitored item: [946..955] data: {'hbf, 'h77}, size: 2, offset: 1, response: CFS_MD_ERR, length: 1, prev_item_delay: 4
# UVM_INFO ../model/cfs_algn_model.sv(378) @ 1006: uvm_test_top.env.model [CNT_DROP] Increment reg_block.STATUS.CNT_DROP: 5 due to: CFS_MD_ERR
# UVM_INFO ../agent_md/cfs_md_monitor.sv(88) @ 1015: uvm_test_top.env.md_rx_agent.monitor [ITEM_END] Monitored item: [1006..1015] data: {'h6c, 'hc9, 'he7}, size: 3, offset: 1, response: CFS_MD_ERR, length: 1, prev_item_delay: 5
# UVM_INFO ../model/cfs_algn_model.sv(543) @ 1195: uvm_test_top.env.model [DEBUG] RX FIFO push - new level: 1, pushed entry: [1186..] data: {'h46, 'h23, 'h58, 'h1d}, size: 4, offset: 0, response: CFS_MD_OKAY, length: 1, prev_item_delay: 17
# UVM_INFO ../agent_md/cfs_md_monitor.sv(88) @ 1195: uvm_test_top.env.md_rx_agent.monitor [ITEM_END] Monitored item: [1186..1195] data: {'h46, 'h23, 'h58, 'h1d}, size: 4, offset: 0, response: CFS_MD_OKAY, length: 1, prev_item_delay: 17
# UVM_INFO ../model/cfs_algn_model.sv(757) @ 1205: uvm_test_top.env.model [RX_FIFO] RX FIFO pop - new level: 0, popped entry: [1186..1195] data: {'h46, 'h23, 'h58, 'h1d}, size: 4, offset: 0, response: CFS_MD_OKAY, length: 1, prev_item_delay: 17
# UVM_INFO ../model/cfs_algn_model.sv(847) @ 1205: uvm_test_top.env.model [DEBUG1] md_offset:         0, md_size:         4##########################################################
# UVM_INFO ../model/cfs_algn_model.sv(258) @ 1205: uvm_test_top.env.model [RX_FIFO] RX FIFO became empty - reg_block.IRQ.RX_FIFO_EMPTY: 1
# UVM_INFO ../model/cfs_algn_model.sv(772) @ 1215: uvm_test_top.env.model [TX_FIFO] TX FIFO push - new level: 1, pushed entry: [1186..1195] data: {'h46, 'h23, 'h58, 'h1d}, size: 4, offset: 0, response: CFS_MD_OKAY, length: 0, prev_item_delay: 0
# UVM_INFO ../model/cfs_algn_model.sv(787) @ 1275: uvm_test_top.env.model [TX_FIFO] TX FIFO pop - new level: 0, popped entry: [1186..1195] data: {'h46, 'h23, 'h58, 'h1d}, size: 4, offset: 0, response: CFS_MD_OKAY, length: 0, prev_item_delay: 0
# UVM_INFO ../agent_md/cfs_md_monitor.sv(88) @ 1275: uvm_test_top.env.md_tx_agent.monitor [ITEM_END] Monitored item: [1216..1275] data: {'h46, 'h23, 'h58, 'h1d}, size: 4, offset: 0, response: CFS_MD_ERR, length: 6, prev_item_delay: 51
# UVM_INFO ../model/cfs_algn_model.sv(312) @ 1275: uvm_test_top.env.model [TX_FIFO] TX FIFO became empty - reg_block.IRQ.TX_FIFO_EMPTY: 1
# UVM_INFO ../model/cfs_algn_model.sv(543) @ 1285: uvm_test_top.env.model [DEBUG] RX FIFO push - new level: 1, pushed entry: [1276..] data: {'h1f, 'hcb, 'h3f, 'he6}, size: 4, offset: 0, response: CFS_MD_OKAY, length: 1, prev_item_delay: 8
# UVM_INFO ../agent_md/cfs_md_monitor.sv(88) @ 1285: uvm_test_top.env.md_rx_agent.monitor [ITEM_END] Monitored item: [1276..1285] data: {'h1f, 'hcb, 'h3f, 'he6}, size: 4, offset: 0, response: CFS_MD_OKAY, length: 1, prev_item_delay: 8
# UVM_INFO ../model/cfs_algn_model.sv(757) @ 1295: uvm_test_top.env.model [RX_FIFO] RX FIFO pop - new level: 0, popped entry: [1276..1285] data: {'h1f, 'hcb, 'h3f, 'he6}, size: 4, offset: 0, response: CFS_MD_OKAY, length: 1, prev_item_delay: 8
# UVM_INFO ../model/cfs_algn_model.sv(847) @ 1295: uvm_test_top.env.model [DEBUG1] md_offset:         0, md_size:         4##########################################################
# UVM_INFO ../model/cfs_algn_model.sv(258) @ 1295: uvm_test_top.env.model [RX_FIFO] RX FIFO became empty - reg_block.IRQ.RX_FIFO_EMPTY: 1
# UVM_INFO ../model/cfs_algn_model.sv(772) @ 1305: uvm_test_top.env.model [TX_FIFO] TX FIFO push - new level: 1, pushed entry: [1276..1285] data: {'h1f, 'hcb, 'h3f, 'he6}, size: 4, offset: 0, response: CFS_MD_OKAY, length: 0, prev_item_delay: 0
# UVM_INFO ../model/cfs_algn_model.sv(543) @ 1325: uvm_test_top.env.model [DEBUG] RX FIFO push - new level: 1, pushed entry: [1316..] data: {'ha6, 'h34, 'h2e, 'h82}, size: 4, offset: 0, response: CFS_MD_OKAY, length: 1, prev_item_delay: 3
# UVM_INFO ../agent_md/cfs_md_monitor.sv(88) @ 1325: uvm_test_top.env.md_rx_agent.monitor [ITEM_END] Monitored item: [1316..1325] data: {'ha6, 'h34, 'h2e, 'h82}, size: 4, offset: 0, response: CFS_MD_OKAY, length: 1, prev_item_delay: 3
# UVM_INFO ../model/cfs_algn_model.sv(757) @ 1335: uvm_test_top.env.model [RX_FIFO] RX FIFO pop - new level: 0, popped entry: [1316..1325] data: {'ha6, 'h34, 'h2e, 'h82}, size: 4, offset: 0, response: CFS_MD_OKAY, length: 1, prev_item_delay: 3
# UVM_INFO ../model/cfs_algn_model.sv(787) @ 1335: uvm_test_top.env.model [TX_FIFO] TX FIFO pop - new level: 0, popped entry: [1276..1285] data: {'h1f, 'hcb, 'h3f, 'he6}, size: 4, offset: 0, response: CFS_MD_OKAY, length: 0, prev_item_delay: 0
# UVM_INFO ../agent_md/cfs_md_monitor.sv(88) @ 1335: uvm_test_top.env.md_tx_agent.monitor [ITEM_END] Monitored item: [1306..1335] data: {'h1f, 'hcb, 'h3f, 'he6}, size: 4, offset: 0, response: CFS_MD_ERR, length: 3, prev_item_delay: 3
# UVM_INFO ../model/cfs_algn_model.sv(847) @ 1335: uvm_test_top.env.model [DEBUG1] md_offset:         0, md_size:         4##########################################################
# UVM_INFO ../model/cfs_algn_model.sv(258) @ 1335: uvm_test_top.env.model [RX_FIFO] RX FIFO became empty - reg_block.IRQ.RX_FIFO_EMPTY: 1
# UVM_INFO ../model/cfs_algn_model.sv(312) @ 1335: uvm_test_top.env.model [TX_FIFO] TX FIFO became empty - reg_block.IRQ.TX_FIFO_EMPTY: 1
# UVM_INFO ../model/cfs_algn_model.sv(772) @ 1345: uvm_test_top.env.model [TX_FIFO] TX FIFO push - new level: 1, pushed entry: [1316..1325] data: {'ha6, 'h34, 'h2e, 'h82}, size: 4, offset: 0, response: CFS_MD_OKAY, length: 0, prev_item_delay: 0
# UVM_INFO ../model/cfs_algn_model.sv(543) @ 1355: uvm_test_top.env.model [DEBUG] RX FIFO push - new level: 1, pushed entry: [1346..] data: {'h4e, 'h6a, 'h77, 'h22}, size: 4, offset: 0, response: CFS_MD_OKAY, length: 1, prev_item_delay: 2
# UVM_INFO ../agent_md/cfs_md_monitor.sv(88) @ 1355: uvm_test_top.env.md_rx_agent.monitor [ITEM_END] Monitored item: [1346..1355] data: {'h4e, 'h6a, 'h77, 'h22}, size: 4, offset: 0, response: CFS_MD_OKAY, length: 1, prev_item_delay: 2
# UVM_INFO ../model/cfs_algn_model.sv(757) @ 1365: uvm_test_top.env.model [RX_FIFO] RX FIFO pop - new level: 0, popped entry: [1346..1355] data: {'h4e, 'h6a, 'h77, 'h22}, size: 4, offset: 0, response: CFS_MD_OKAY, length: 1, prev_item_delay: 2
# UVM_INFO ../model/cfs_algn_model.sv(847) @ 1365: uvm_test_top.env.model [DEBUG1] md_offset:         0, md_size:         4##########################################################
# UVM_INFO ../model/cfs_algn_model.sv(258) @ 1365: uvm_test_top.env.model [RX_FIFO] RX FIFO became empty - reg_block.IRQ.RX_FIFO_EMPTY: 1
# UVM_INFO ../model/cfs_algn_model.sv(772) @ 1375: uvm_test_top.env.model [TX_FIFO] TX FIFO push - new level: 2, pushed entry: [1346..1355] data: {'h4e, 'h6a, 'h77, 'h22}, size: 4, offset: 0, response: CFS_MD_OKAY, length: 0, prev_item_delay: 0
# UVM_INFO ../model/cfs_algn_model.sv(543) @ 1385: uvm_test_top.env.model [DEBUG] RX FIFO push - new level: 1, pushed entry: [1376..] data: {'hf3, 'h06, 'h72, 'hc5}, size: 4, offset: 0, response: CFS_MD_OKAY, length: 1, prev_item_delay: 2
# UVM_INFO ../agent_md/cfs_md_monitor.sv(88) @ 1385: uvm_test_top.env.md_rx_agent.monitor [ITEM_END] Monitored item: [1376..1385] data: {'hf3, 'h06, 'h72, 'hc5}, size: 4, offset: 0, response: CFS_MD_OKAY, length: 1, prev_item_delay: 2
# UVM_INFO ../model/cfs_algn_model.sv(757) @ 1395: uvm_test_top.env.model [RX_FIFO] RX FIFO pop - new level: 0, popped entry: [1376..1385] data: {'hf3, 'h06, 'h72, 'hc5}, size: 4, offset: 0, response: CFS_MD_OKAY, length: 1, prev_item_delay: 2
