tb/sim/logs/cfs_algn_test_split_legal_combinations_transcript.log
Reading pref.tcl

# 2021.2_1

# vsim -coverage -c work.testbench "+UVM_TESTNAME=cfs_algn_test_split_legal_combinations" "+sv_seed=38014592" "+UVM_MAX_QUIT_COUNT=1" "+access+rw" -f messages.f -do "do ../../tb/sim/toggle_exclude.do; coverage save -onexit ucdb/cfs_algn_test_split_legal_combinations.ucdb; run -all; quit;" 
# Start time: 06:07:13 on May 11,2026
# ** Note: (vsim-8009) Loading existing optimized design _opt
# //  Questa Sim-64
# //  Version 2021.2_1 linux_x86_64 May 15 2021
# //
# //  Copyright 1991-2021 Mentor Graphics Corporation
# //  All Rights Reserved.
# //
# //  QuestaSim and its associated documentation contain trade
# //  secrets and commercial or financial information that are the property of
# //  Mentor Graphics Corporation and are privileged, confidential,
# //  and exempt from disclosure under the Freedom of Information Act,
# //  5 U.S.C. Section 552. Furthermore, this information
# //  is prohibited from disclosure under the Trade Secrets Act,
# //  18 U.S.C. Section 1905.
# //
# Loading sv_std.std
# Loading work.cfs_algn_if(fast)
# Loading work.cfs_apb_if(fast)
# Loading work.cfs_md_if(fast)
# Loading mtiUvm.uvm_pkg(fast)
# Loading work.cfs_algn_reg_pkg(fast)
# Loading work.uvm_ext_pkg(fast)
# Loading work.cfs_md_pkg(fast)
# Loading work.cfs_apb_pkg(fast)
# Loading work.cfs_algn_pkg(fast)
# Loading work.cfs_algn_test_pkg(fast)
# Loading mtiUvm.questa_uvm_pkg(fast)
# Loading work.testbench(fast)
# Loading work.cfs_apb_if(fast__2)
# Loading work.cfs_md_if(fast__2)
# Loading work.cfs_algn_if(fast__2)
# Loading work.cfs_aligner(fast)
# Loading work.cfs_aligner_core(fast)
# Loading work.cfs_rx_ctrl(fast)
# Loading work.cfs_synch(fast)
# Loading work.cfs_synch_fifo(fast)
# Loading work.cfs_tx_ctrl(fast)
# Loading work.cfs_ctrl(fast)
# Loading work.cfs_regs(fast)
# Loading work.cfs_edge_detect(fast)
# Loading work.cfs_edge_detect(fast__1)
# Loading /home/user/Downloads/questasim/uvm-1.1d/linux_x86_64/uvm_dpi.so
# do ../../tb/sim/toggle_exclude.do
# ** Warning: -comment options is supported in post simulation viewcov mode only, ignoring it.
# ** Warning: -comment options is supported in post simulation viewcov mode only, ignoring it.
# ** Warning: -comment options is supported in post simulation viewcov mode only, ignoring it.
# ** Warning: -comment options is supported in post simulation viewcov mode only, ignoring it.
# ** Warning: -comment options is supported in post simulation viewcov mode only, ignoring it.
#  coverage save -onexit ucdb/cfs_algn_test_split_legal_combinations.ucdb
#  run -all
# ----------------------------------------------------------------
# UVM-1.1d
# (C) 2007-2013 Mentor Graphics Corporation
# (C) 2007-2013 Cadence Design Systems, Inc.
# (C) 2006-2013 Synopsys, Inc.
# (C) 2011-2013 Cypress Semiconductor Corp.
# ----------------------------------------------------------------
# 
#   ***********       IMPORTANT RELEASE NOTES         ************
# 
#   You are using a version of the UVM library that has been compiled
#   with `UVM_NO_DEPRECATED undefined.
#   See http://www.eda.org/svdb/view.php?id=3313 for more details.
# 
#   You are using a version of the UVM library that has been compiled
#   with `UVM_OBJECT_MUST_HAVE_CONSTRUCTOR undefined.
#   See http://www.eda.org/svdb/view.php?id=3770 for more details.
# 
#       (Specify +UVM_NO_RELNOTES to turn off this notice)
# 
# UVM_INFO verilog_src/questa_uvm_pkg-1.2/src/questa_uvm_pkg.sv(277) @ 0: reporter [Questa UVM] QUESTA_UVM-1.2.3
# UVM_INFO verilog_src/questa_uvm_pkg-1.2/src/questa_uvm_pkg.sv(278) @ 0: reporter [Questa UVM]  questa_uvm::init(+struct)
# UVM_INFO @ 0: reporter [RNTST] Running test cfs_algn_test_split_legal_combinations...
# UVM_INFO @ 0: reporter [MAXQUITSET] '+UVM_MAX_QUIT_COUNT=1' provided on the command line is being applied.
# ** Warning: (vsim-8549) After dropping the illegal, ignore or invalid values, the values list associated with scalar bin 'length_eq_2' in Coverpoint 'length' of Covergroup instance '\/cfs_apb_pkg::cfs_apb_coverage::cover_item ' has converged to empty list. The bin will be taken out of coverage calculation.
#    Time: 0 ns  Iteration: 7  Region: /uvm_pkg::uvm_phase::m_run_phases
# ** Warning: (vsim-8547) After dropping the illegal, ignore or invalid values, the values list associated with fixed-size array sub bin 'length_le_10[1]' in Coverpoint 'length' of Covergroup instance '\/cfs_apb_pkg::cfs_apb_coverage::cover_item ' has converged to empty list. The sub bin will be taken out of coverage calculation.
#    Time: 0 ns  Iteration: 7  Region: /uvm_pkg::uvm_phase::m_run_phases
# ** Warning: (vsim-8547) After dropping the illegal, ignore or invalid values, the values list associated with fixed-size array sub bin 'length_le_10[2]' in Coverpoint 'length' of Covergroup instance '\/cfs_apb_pkg::cfs_apb_coverage::cover_item ' has converged to empty list. The sub bin will be taken out of coverage calculation.
#    Time: 0 ns  Iteration: 7  Region: /uvm_pkg::uvm_phase::m_run_phases
# ** Warning: (vsim-8547) After dropping the illegal, ignore or invalid values, the values list associated with fixed-size array sub bin 'length_le_10[3]' in Coverpoint 'length' of Covergroup instance '\/cfs_apb_pkg::cfs_apb_coverage::cover_item ' has converged to empty list. The sub bin will be taken out of coverage calculation.
#    Time: 0 ns  Iteration: 7  Region: /uvm_pkg::uvm_phase::m_run_phases
# ** Warning: (vsim-8547) After dropping the illegal, ignore or invalid values, the values list associated with fixed-size array sub bin 'length_le_10[4]' in Coverpoint 'length' of Covergroup instance '\/cfs_apb_pkg::cfs_apb_coverage::cover_item ' has converged to empty list. The sub bin will be taken out of coverage calculation.
#    Time: 0 ns  Iteration: 7  Region: /uvm_pkg::uvm_phase::m_run_phases
# ** Warning: (vsim-8547) After dropping the illegal, ignore or invalid values, the values list associated with fixed-size array sub bin 'length_le_10[5]' in Coverpoint 'length' of Covergroup instance '\/cfs_apb_pkg::cfs_apb_coverage::cover_item ' has converged to empty list. The sub bin will be taken out of coverage calculation.
#    Time: 0 ns  Iteration: 7  Region: /uvm_pkg::uvm_phase::m_run_phases
# ** Warning: (vsim-8547) After dropping the illegal, ignore or invalid values, the values list associated with fixed-size array sub bin 'length_le_10[6]' in Coverpoint 'length' of Covergroup instance '\/cfs_apb_pkg::cfs_apb_coverage::cover_item ' has converged to empty list. The sub bin will be taken out of coverage calculation.
#    Time: 0 ns  Iteration: 7  Region: /uvm_pkg::uvm_phase::m_run_phases
# ** Warning: (vsim-8547) After dropping the illegal, ignore or invalid values, the values list associated with fixed-size array sub bin 'length_le_10[7]' in Coverpoint 'length' of Covergroup instance '\/cfs_apb_pkg::cfs_apb_coverage::cover_item ' has converged to empty list. The sub bin will be taken out of coverage calculation.
#    Time: 0 ns  Iteration: 7  Region: /uvm_pkg::uvm_phase::m_run_phases
# ** Warning: (vsim-8549) After dropping the illegal, ignore or invalid values, the values list associated with scalar bin 'length_gt_10' in Coverpoint 'length' of Covergroup instance '\/cfs_apb_pkg::cfs_apb_coverage::cover_item ' has converged to empty list. The bin will be taken out of coverage calculation.
#    Time: 0 ns  Iteration: 7  Region: /uvm_pkg::uvm_phase::m_run_phases
# ** Warning: (vsim-12051) Illegal assignment in cast to class work.cfs_md_pkg::cfs_md_sequencer_base_master from class work.uvm_ext_pkg::uvm_ext_sequencer #(class work.cfs_md_pkg::cfs_md_item_drv_master)
#    Time: 0 ns  Iteration: 32  Process: /uvm_pkg::uvm_phase::m_run_phases/#FORK#1847_7fefe44bd36 File: ../env/cfs_algn_env.sv Line: 129
# ** Warning: (vsim-12051) Illegal assignment in cast to class work.cfs_md_pkg::cfs_md_sequencer_base_slave from class work.uvm_ext_pkg::uvm_ext_sequencer #(class work.cfs_md_pkg::cfs_md_item_drv_slave)
#    Time: 0 ns  Iteration: 32  Process: /uvm_pkg::uvm_phase::m_run_phases/#FORK#1847_7fefe44bd36 File: ../env/cfs_algn_env.sv Line: 130
# UVM_INFO verilog_src/uvm-1.1d/src/reg/uvm_reg_predictor.svh(218) @ 175: uvm_test_top.env.predictor [REG_PREDICT] Observed WRITE transaction to register reg_block.CTRL: value='h1 : updated value = 'h1
# UVM_INFO ../model/cfs_algn_model.sv(543) @ 225: uvm_test_top.env.model [DEBUG] RX FIFO push - new level: 1, pushed entry: [216..] data: {'hba}, size: 1, offset: 0, response: CFS_MD_OKAY, length: 1, prev_item_delay: 18
# UVM_INFO ../agent_md/cfs_md_monitor.sv(88) @ 225: uvm_test_top.env.md_rx_agent.monitor [ITEM_END] Monitored item: [216..225] data: {'hba}, size: 1, offset: 0, response: CFS_MD_OKAY, length: 1, prev_item_delay: 18
# UVM_INFO ../model/cfs_algn_model.sv(757) @ 235: uvm_test_top.env.model [RX_FIFO] RX FIFO pop - new level: 0, popped entry: [216..225] data: {'hba}, size: 1, offset: 0, response: CFS_MD_OKAY, length: 1, prev_item_delay: 18
# UVM_INFO ../model/cfs_algn_model.sv(847) @ 235: uvm_test_top.env.model [DEBUG1] md_offset:         0, md_size:         1##########################################################
# UVM_INFO ../model/cfs_algn_model.sv(258) @ 235: uvm_test_top.env.model [RX_FIFO] RX FIFO became empty - reg_block.IRQ.RX_FIFO_EMPTY: 1
# UVM_INFO ../model/cfs_algn_model.sv(772) @ 245: uvm_test_top.env.model [TX_FIFO] TX FIFO push - new level: 1, pushed entry: [216..225] data: {'hba}, size: 1, offset: 0, response: CFS_MD_OKAY, length: 0, prev_item_delay: 0
# UVM_INFO ../model/cfs_algn_model.sv(787) @ 285: uvm_test_top.env.model [TX_FIFO] TX FIFO pop - new level: 0, popped entry: [216..225] data: {'hba}, size: 1, offset: 0, response: CFS_MD_OKAY, length: 0, prev_item_delay: 0
# UVM_INFO ../agent_md/cfs_md_monitor.sv(88) @ 285: uvm_test_top.env.md_tx_agent.monitor [ITEM_END] Monitored item: [246..285] data: {'hba}, size: 1, offset: 0, response: CFS_MD_OKAY, length: 4, prev_item_delay: 21
# UVM_INFO ../model/cfs_algn_model.sv(312) @ 285: uvm_test_top.env.model [TX_FIFO] TX FIFO became empty - reg_block.IRQ.TX_FIFO_EMPTY: 1
# UVM_INFO ../model/cfs_algn_model.sv(543) @ 335: uvm_test_top.env.model [DEBUG] RX FIFO push - new level: 1, pushed entry: [326..] data: {'h42, 'hfa}, size: 2, offset: 0, response: CFS_MD_OKAY, length: 1, prev_item_delay: 10
# UVM_INFO ../agent_md/cfs_md_monitor.sv(88) @ 335: uvm_test_top.env.md_rx_agent.monitor [ITEM_END] Monitored item: [326..335] data: {'h42, 'hfa}, size: 2, offset: 0, response: CFS_MD_OKAY, length: 1, prev_item_delay: 10
# UVM_INFO ../model/cfs_algn_model.sv(757) @ 345: uvm_test_top.env.model [RX_FIFO] RX FIFO pop - new level: 0, popped entry: [326..335] data: {'h42, 'hfa}, size: 2, offset: 0, response: CFS_MD_OKAY, length: 1, prev_item_delay: 10
# UVM_INFO ../model/cfs_algn_model.sv(871) @ 345: uvm_test_top.env.model [DEBUG1] md_offset:         0, md_size:         2---------------------------------------------------------
# UVM_INFO ../model/cfs_algn_model.sv(847) @ 345: uvm_test_top.env.model [DEBUG1] md_offset:         0, md_size:         1##########################################################
# UVM_INFO ../model/cfs_algn_model.sv(258) @ 345: uvm_test_top.env.model [RX_FIFO] RX FIFO became empty - reg_block.IRQ.RX_FIFO_EMPTY: 1
# UVM_INFO ../model/cfs_algn_model.sv(772) @ 355: uvm_test_top.env.model [TX_FIFO] TX FIFO push - new level: 1, pushed entry: [326..335] data: {'h42}, size: 1, offset: 0, response: CFS_MD_OKAY, length: 0, prev_item_delay: 0
# UVM_INFO ../model/cfs_algn_model.sv(847) @ 355: uvm_test_top.env.model [DEBUG1] md_offset:         1, md_size:         1##########################################################
# UVM_INFO ../model/cfs_algn_model.sv(772) @ 365: uvm_test_top.env.model [TX_FIFO] TX FIFO push - new level: 2, pushed entry: [326..335] data: {'hfa}, size: 1, offset: 0, response: CFS_MD_OKAY, length: 0, prev_item_delay: 0
# UVM_INFO ../model/cfs_algn_model.sv(787) @ 385: uvm_test_top.env.model [TX_FIFO] TX FIFO pop - new level: 1, popped entry: [326..335] data: {'h42}, size: 1, offset: 0, response: CFS_MD_OKAY, length: 0, prev_item_delay: 0
# UVM_INFO ../agent_md/cfs_md_monitor.sv(88) @ 385: uvm_test_top.env.md_tx_agent.monitor [ITEM_END] Monitored item: [356..385] data: {'h42}, size: 1, offset: 0, response: CFS_MD_OKAY, length: 3, prev_item_delay: 7
# UVM_INFO ../model/cfs_algn_model.sv(787) @ 415: uvm_test_top.env.model [TX_FIFO] TX FIFO pop - new level: 0, popped entry: [326..335] data: {'hfa}, size: 1, offset: 0, response: CFS_MD_OKAY, length: 0, prev_item_delay: 0
# UVM_INFO ../agent_md/cfs_md_monitor.sv(88) @ 415: uvm_test_top.env.md_tx_agent.monitor [ITEM_END] Monitored item: [386..415] data: {'hfa}, size: 1, offset: 0, response: CFS_MD_ERR, length: 3, prev_item_delay: 0
# UVM_INFO ../model/cfs_algn_model.sv(312) @ 415: uvm_test_top.env.model [TX_FIFO] TX FIFO became empty - reg_block.IRQ.TX_FIFO_EMPTY: 1
# UVM_INFO ../model/cfs_algn_model.sv(543) @ 445: uvm_test_top.env.model [DEBUG] RX FIFO push - new level: 1, pushed entry: [436..] data: {'h64, 'hea, 'hfc, 'h27}, size: 4, offset: 0, response: CFS_MD_OKAY, length: 1, prev_item_delay: 10
# UVM_INFO ../agent_md/cfs_md_monitor.sv(88) @ 445: uvm_test_top.env.md_rx_agent.monitor [ITEM_END] Monitored item: [436..445] data: {'h64, 'hea, 'hfc, 'h27}, size: 4, offset: 0, response: CFS_MD_OKAY, length: 1, prev_item_delay: 10
# UVM_INFO ../model/cfs_algn_model.sv(757) @ 455: uvm_test_top.env.model [RX_FIFO] RX FIFO pop - new level: 0, popped entry: [436..445] data: {'h64, 'hea, 'hfc, 'h27}, size: 4, offset: 0, response: CFS_MD_OKAY, length: 1, prev_item_delay: 10
# UVM_INFO ../model/cfs_algn_model.sv(871) @ 455: uvm_test_top.env.model [DEBUG1] md_offset:         0, md_size:         4---------------------------------------------------------
# UVM_INFO ../model/cfs_algn_model.sv(847) @ 455: uvm_test_top.env.model [DEBUG1] md_offset:         0, md_size:         1##########################################################
# UVM_INFO ../model/cfs_algn_model.sv(258) @ 455: uvm_test_top.env.model [RX_FIFO] RX FIFO became empty - reg_block.IRQ.RX_FIFO_EMPTY: 1
# UVM_INFO ../model/cfs_algn_model.sv(772) @ 465: uvm_test_top.env.model [TX_FIFO] TX FIFO push - new level: 1, pushed entry: [436..445] data: {'h64}, size: 1, offset: 0, response: CFS_MD_OKAY, length: 0, prev_item_delay: 0
# UVM_INFO ../model/cfs_algn_model.sv(871) @ 465: uvm_test_top.env.model [DEBUG1] md_offset:         1, md_size:         3---------------------------------------------------------
# UVM_INFO ../model/cfs_algn_model.sv(847) @ 465: uvm_test_top.env.model [DEBUG1] md_offset:         1, md_size:         1##########################################################
# UVM_INFO ../model/cfs_algn_model.sv(772) @ 475: uvm_test_top.env.model [TX_FIFO] TX FIFO push - new level: 2, pushed entry: [436..445] data: {'hea}, size: 1, offset: 0, response: CFS_MD_OKAY, length: 0, prev_item_delay: 0
# UVM_INFO ../model/cfs_algn_model.sv(871) @ 475: uvm_test_top.env.model [DEBUG1] md_offset:         2, md_size:         2---------------------------------------------------------
# UVM_INFO ../model/cfs_algn_model.sv(847) @ 475: uvm_test_top.env.model [DEBUG1] md_offset:         2, md_size:         1##########################################################
# UVM_INFO ../model/cfs_algn_model.sv(772) @ 485: uvm_test_top.env.model [TX_FIFO] TX FIFO push - new level: 3, pushed entry: [436..445] data: {'hfc}, size: 1, offset: 0, response: CFS_MD_OKAY, length: 0, prev_item_delay: 0
# UVM_INFO ../model/cfs_algn_model.sv(847) @ 485: uvm_test_top.env.model [DEBUG1] md_offset:         3, md_size:         1##########################################################
# UVM_INFO ../model/cfs_algn_model.sv(787) @ 485: uvm_test_top.env.model [TX_FIFO] TX FIFO pop - new level: 2, popped entry: [436..445] data: {'h64}, size: 1, offset: 0, response: CFS_MD_OKAY, length: 0, prev_item_delay: 0
# UVM_INFO ../agent_md/cfs_md_monitor.sv(88) @ 485: uvm_test_top.env.md_tx_agent.monitor [ITEM_END] Monitored item: [466..485] data: {'h64}, size: 1, offset: 0, response: CFS_MD_OKAY, length: 2, prev_item_delay: 5
# UVM_INFO ../model/cfs_algn_model.sv(787) @ 495: uvm_test_top.env.model [TX_FIFO] TX FIFO pop - new level: 1, popped entry: [436..445] data: {'hea}, size: 1, offset: 0, response: CFS_MD_OKAY, length: 0, prev_item_delay: 0
# UVM_INFO ../model/cfs_algn_model.sv(772) @ 495: uvm_test_top.env.model [TX_FIFO] TX FIFO push - new level: 2, pushed entry: [436..445] data: {'h27}, size: 1, offset: 0, response: CFS_MD_OKAY, length: 0, prev_item_delay: 0
# UVM_INFO ../agent_md/cfs_md_monitor.sv(88) @ 495: uvm_test_top.env.md_tx_agent.monitor [ITEM_END] Monitored item: [486..495] data: {'hea}, size: 1, offset: 0, response: CFS_MD_OKAY, length: 1, prev_item_delay: 0
# UVM_INFO ../model/cfs_algn_model.sv(787) @ 515: uvm_test_top.env.model [TX_FIFO] TX FIFO pop - new level: 1, popped entry: [436..445] data: {'hfc}, size: 1, offset: 0, response: CFS_MD_OKAY, length: 0, prev_item_delay: 0
# UVM_INFO ../agent_md/cfs_md_monitor.sv(88) @ 515: uvm_test_top.env.md_tx_agent.monitor [ITEM_END] Monitored item: [496..515] data: {'hfc}, size: 1, offset: 0, response: CFS_MD_ERR, length: 2, prev_item_delay: 0
# UVM_INFO ../model/cfs_algn_model.sv(787) @ 535: uvm_test_top.env.model [TX_FIFO] TX FIFO pop - new level: 0, popped entry: [436..445] data: {'h27}, size: 1, offset: 0, response: CFS_MD_OKAY, length: 0, prev_item_delay: 0
# UVM_INFO ../agent_md/cfs_md_monitor.sv(88) @ 535: uvm_test_top.env.md_tx_agent.monitor [ITEM_END] Monitored item: [516..535] data: {'h27}, size: 1, offset: 0, response: CFS_MD_ERR, length: 2, prev_item_delay: 0
# UVM_INFO ../model/cfs_algn_model.sv(312) @ 535: uvm_test_top.env.model [TX_FIFO] TX FIFO became empty - reg_block.IRQ.TX_FIFO_EMPTY: 1
# UVM_INFO ../model/cfs_algn_model.sv(543) @ 555: uvm_test_top.env.model [DEBUG] RX FIFO push - new level: 1, pushed entry: [546..] data: {'hd8}, size: 1, offset: 1, response: CFS_MD_OKAY, length: 1, prev_item_delay: 10
# UVM_INFO ../agent_md/cfs_md_monitor.sv(88) @ 555: uvm_test_top.env.md_rx_agent.monitor [ITEM_END] Monitored item: [546..555] data: {'hd8}, size: 1, offset: 1, response: CFS_MD_OKAY, length: 1, prev_item_delay: 10
# UVM_INFO ../model/cfs_algn_model.sv(757) @ 565: uvm_test_top.env.model [RX_FIFO] RX FIFO pop - new level: 0, popped entry: [546..555] data: {'hd8}, size: 1, offset: 1, response: CFS_MD_OKAY, length: 1, prev_item_delay: 10
# UVM_INFO ../model/cfs_algn_model.sv(847) @ 565: uvm_test_top.env.model [DEBUG1] md_offset:         1, md_size:         1##########################################################
# UVM_INFO ../model/cfs_algn_model.sv(258) @ 565: uvm_test_top.env.model [RX_FIFO] RX FIFO became empty - reg_block.IRQ.RX_FIFO_EMPTY: 1
# UVM_INFO ../model/cfs_algn_model.sv(772) @ 575: uvm_test_top.env.model [TX_FIFO] TX FIFO push - new level: 1, pushed entry: [546..555] data: {'hd8}, size: 1, offset: 0, response: CFS_MD_OKAY, length: 0, prev_item_delay: 0
# UVM_INFO ../model/cfs_algn_model.sv(787) @ 625: uvm_test_top.env.model [TX_FIFO] TX FIFO pop - new level: 0, popped entry: [546..555] data: {'hd8}, size: 1, offset: 0, response: CFS_MD_OKAY, length: 0, prev_item_delay: 0
# UVM_INFO ../agent_md/cfs_md_monitor.sv(88) @ 625: uvm_test_top.env.md_tx_agent.monitor [ITEM_END] Monitored item: [576..625] data: {'hd8}, size: 1, offset: 0, response: CFS_MD_OKAY, length: 5, prev_item_delay: 4
# UVM_INFO ../model/cfs_algn_model.sv(312) @ 625: uvm_test_top.env.model [TX_FIFO] TX FIFO became empty - reg_block.IRQ.TX_FIFO_EMPTY: 1
# UVM_INFO ../model/cfs_algn_model.sv(543) @ 665: uvm_test_top.env.model [DEBUG] RX FIFO push - new level: 1, pushed entry: [656..] data: {'hcf}, size: 1, offset: 2, response: CFS_MD_OKAY, length: 1, prev_item_delay: 10
# UVM_INFO ../agent_md/cfs_md_monitor.sv(88) @ 665: uvm_test_top.env.md_rx_agent.monitor [ITEM_END] Monitored item: [656..665] data: {'hcf}, size: 1, offset: 2, response: CFS_MD_OKAY, length: 1, prev_item_delay: 10
# UVM_INFO ../model/cfs_algn_model.sv(757) @ 675: uvm_test_top.env.model [RX_FIFO] RX FIFO pop - new level: 0, popped entry: [656..665] data: {'hcf}, size: 1, offset: 2, response: CFS_MD_OKAY, length: 1, prev_item_delay: 10
# UVM_INFO ../model/cfs_algn_model.sv(847) @ 675: uvm_test_top.env.model [DEBUG1] md_offset:         2, md_size:         1##########################################################
# UVM_INFO ../model/cfs_algn_model.sv(258) @ 675: uvm_test_top.env.model [RX_FIFO] RX FIFO became empty - reg_block.IRQ.RX_FIFO_EMPTY: 1
# UVM_INFO ../model/cfs_algn_model.sv(772) @ 685: uvm_test_top.env.model [TX_FIFO] TX FIFO push - new level: 1, pushed entry: [656..665] data: {'hcf}, size: 1, offset: 0, response: CFS_MD_OKAY, length: 0, prev_item_delay: 0
# UVM_INFO ../model/cfs_algn_model.sv(787) @ 745: uvm_test_top.env.model [TX_FIFO] TX FIFO pop - new level: 0, popped entry: [656..665] data: {'hcf}, size: 1, offset: 0, response: CFS_MD_OKAY, length: 0, prev_item_delay: 0
# UVM_INFO ../agent_md/cfs_md_monitor.sv(88) @ 745: uvm_test_top.env.md_tx_agent.monitor [ITEM_END] Monitored item: [686..745] data: {'hcf}, size: 1, offset: 0, response: CFS_MD_OKAY, length: 6, prev_item_delay: 6
# UVM_INFO ../model/cfs_algn_model.sv(312) @ 745: uvm_test_top.env.model [TX_FIFO] TX FIFO became empty - reg_block.IRQ.TX_FIFO_EMPTY: 1
# UVM_INFO ../model/cfs_algn_model.sv(543) @ 775: uvm_test_top.env.model [DEBUG] RX FIFO push - new level: 1, pushed entry: [766..] data: {'h2c, 'h36}, size: 2, offset: 2, response: CFS_MD_OKAY, length: 1, prev_item_delay: 10
# UVM_INFO ../agent_md/cfs_md_monitor.sv(88) @ 775: uvm_test_top.env.md_rx_agent.monitor [ITEM_END] Monitored item: [766..775] data: {'h2c, 'h36}, size: 2, offset: 2, response: CFS_MD_OKAY, length: 1, prev_item_delay: 10
# UVM_INFO ../model/cfs_algn_model.sv(757) @ 785: uvm_test_top.env.model [RX_FIFO] RX FIFO pop - new level: 0, popped entry: [766..775] data: {'h2c, 'h36}, size: 2, offset: 2, response: CFS_MD_OKAY, length: 1, prev_item_delay: 10
# UVM_INFO ../model/cfs_algn_model.sv(871) @ 785: uvm_test_top.env.model [DEBUG1] md_offset:         2, md_size:         2---------------------------------------------------------
# UVM_INFO ../model/cfs_algn_model.sv(847) @ 785: uvm_test_top.env.model [DEBUG1] md_offset:         2, md_size:         1##########################################################
# UVM_INFO ../model/cfs_algn_model.sv(258) @ 785: uvm_test_top.env.model [RX_FIFO] RX FIFO became empty - reg_block.IRQ.RX_FIFO_EMPTY: 1
# UVM_INFO ../model/cfs_algn_model.sv(772) @ 795: uvm_test_top.env.model [TX_FIFO] TX FIFO push - new level: 1, pushed entry: [766..775] data: {'h2c}, size: 1, offset: 0, response: CFS_MD_OKAY, length: 0, prev_item_delay: 0
# UVM_INFO ../model/cfs_algn_model.sv(847) @ 795: uvm_test_top.env.model [DEBUG1] md_offset:         3, md_size:         1##########################################################
# UVM_INFO ../model/cfs_algn_model.sv(772) @ 805: uvm_test_top.env.model [TX_FIFO] TX FIFO push - new level: 2, pushed entry: [766..775] data: {'h36}, size: 1, offset: 0, response: CFS_MD_OKAY, length: 0, prev_item_delay: 0
# UVM_INFO ../model/cfs_algn_model.sv(787) @ 855: uvm_test_top.env.model [TX_FIFO] TX FIFO pop - new level: 1, popped entry: [766..775] data: {'h2c}, size: 1, offset: 0, response: CFS_MD_OKAY, length: 0, prev_item_delay: 0
# UVM_INFO ../agent_md/cfs_md_monitor.sv(88) @ 855: uvm_test_top.env.md_tx_agent.monitor [ITEM_END] Monitored item: [796..855] data: {'h2c}, size: 1, offset: 0, response: CFS_MD_OKAY, length: 6, prev_item_delay: 5
# UVM_INFO ../model/cfs_algn_model.sv(543) @ 885: uvm_test_top.env.model [DEBUG] RX FIFO push - new level: 1, pushed entry: [876..] data: {'h2c}, size: 1, offset: 3, response: CFS_MD_OKAY, length: 1, prev_item_delay: 10
# UVM_INFO ../agent_md/cfs_md_monitor.sv(88) @ 885: uvm_test_top.env.md_rx_agent.monitor [ITEM_END] Monitored item: [876..885] data: {'h2c}, size: 1, offset: 3, response: CFS_MD_OKAY, length: 1, prev_item_delay: 10
# UVM_INFO ../model/cfs_algn_model.sv(757) @ 895: uvm_test_top.env.model [RX_FIFO] RX FIFO pop - new level: 0, popped entry: [876..885] data: {'h2c}, size: 1, offset: 3, response: CFS_MD_OKAY, length: 1, prev_item_delay: 10
# UVM_INFO ../model/cfs_algn_model.sv(847) @ 895: uvm_test_top.env.model [DEBUG1] md_offset:         3, md_size:         1##########################################################
# UVM_INFO ../model/cfs_algn_model.sv(258) @ 895: uvm_test_top.env.model [RX_FIFO] RX FIFO became empty - reg_block.IRQ.RX_FIFO_EMPTY: 1
# UVM_INFO ../model/cfs_algn_model.sv(772) @ 905: uvm_test_top.env.model [TX_FIFO] TX FIFO push - new level: 2, pushed entry: [876..885] data: {'h2c}, size: 1, offset: 0, response: CFS_MD_OKAY, length: 0, prev_item_delay: 0
# UVM_INFO ../model/cfs_algn_model.sv(787) @ 905: uvm_test_top.env.model [TX_FIFO] TX FIFO pop - new level: 1, popped entry: [766..775] data: {'h36}, size: 1, offset: 0, response: CFS_MD_OKAY, length: 0, prev_item_delay: 0
# UVM_INFO ../agent_md/cfs_md_monitor.sv(88) @ 905: uvm_test_top.env.md_tx_agent.monitor [ITEM_END] Monitored item: [856..905] data: {'h36}, size: 1, offset: 0, response: CFS_MD_OKAY, length: 5, prev_item_delay: 0
# UVM_INFO ../model/cfs_algn_model.sv(787) @ 945: uvm_test_top.env.model [TX_FIFO] TX FIFO pop - new level: 0, popped entry: [876..885] data: {'h2c}, size: 1, offset: 0, response: CFS_MD_OKAY, length: 0, prev_item_delay: 0
# UVM_INFO ../agent_md/cfs_md_monitor.sv(88) @ 945: uvm_test_top.env.md_tx_agent.monitor [ITEM_END] Monitored item: [906..945] data: {'h2c}, size: 1, offset: 0, response: CFS_MD_OKAY, length: 4, prev_item_delay: 0
# UVM_INFO ../model/cfs_algn_model.sv(312) @ 945: uvm_test_top.env.model [TX_FIFO] TX FIFO became empty - reg_block.IRQ.TX_FIFO_EMPTY: 1
# UVM_INFO verilog_src/uvm-1.1d/src/reg/uvm_reg_predictor.svh(218) @ 1015: uvm_test_top.env.predictor [REG_PREDICT] Observed WRITE transaction to register reg_block.CTRL: value='h2 : updated value = 'h2
# UVM_INFO ../model/cfs_algn_model.sv(543) @ 1065: uvm_test_top.env.model [DEBUG] RX FIFO push - new level: 1, pushed entry: [1056..] data: {'h01}, size: 1, offset: 0, response: CFS_MD_OKAY, length: 1, prev_item_delay: 17
# UVM_INFO ../agent_md/cfs_md_monitor.sv(88) @ 1065: uvm_test_top.env.md_rx_agent.monitor [ITEM_END] Monitored item: [1056..1065] data: {'h01}, size: 1, offset: 0, response: CFS_MD_OKAY, length: 1, prev_item_delay: 17
# UVM_INFO ../model/cfs_algn_model.sv(757) @ 1075: uvm_test_top.env.model [RX_FIFO] RX FIFO pop - new level: 0, popped entry: [1056..1065] data: {'h01}, size: 1, offset: 0, response: CFS_MD_OKAY, length: 1, prev_item_delay: 17
# UVM_INFO ../model/cfs_algn_model.sv(258) @ 1075: uvm_test_top.env.model [RX_FIFO] RX FIFO became empty - reg_block.IRQ.RX_FIFO_EMPTY: 1
# UVM_INFO ../model/cfs_algn_model.sv(543) @ 1175: uvm_test_top.env.model [DEBUG] RX FIFO push - new level: 1, pushed entry: [1166..] data: {'hb7, 'hbb}, size: 2, offset: 0, response: CFS_MD_OKAY, length: 1, prev_item_delay: 10
# UVM_INFO ../agent_md/cfs_md_monitor.sv(88) @ 1175: uvm_test_top.env.md_rx_agent.monitor [ITEM_END] Monitored item: [1166..1175] data: {'hb7, 'hbb}, size: 2, offset: 0, response: CFS_MD_OKAY, length: 1, prev_item_delay: 10
# UVM_INFO ../model/cfs_algn_model.sv(757) @ 1185: uvm_test_top.env.model [RX_FIFO] RX FIFO pop - new level: 0, popped entry: [1166..1175] data: {'hb7, 'hbb}, size: 2, offset: 0, response: CFS_MD_OKAY, length: 1, prev_item_delay: 10
# UVM_INFO ../model/cfs_algn_model.sv(871) @ 1185: uvm_test_top.env.model [DEBUG1] md_offset:         0, md_size:         2---------------------------------------------------------
# UVM_INFO ../model/cfs_algn_model.sv(847) @ 1185: uvm_test_top.env.model [DEBUG1] md_offset:         0, md_size:         1##########################################################
# UVM_INFO ../model/cfs_algn_model.sv(258) @ 1185: uvm_test_top.env.model [RX_FIFO] RX FIFO became empty - reg_block.IRQ.RX_FIFO_EMPTY: 1
# UVM_INFO ../model/cfs_algn_model.sv(772) @ 1195: uvm_test_top.env.model [TX_FIFO] TX FIFO push - new level: 1, pushed entry: [1056..1175] data: {'h01, 'hb7}, size: 2, offset: 0, response: CFS_MD_OKAY, length: 0, prev_item_delay: 0
