tb/sim/logs/cfs_algn_md_tests_cnt_drop_transcript.log
Reading pref.tcl

# 2021.2_1

# vsim -coverage -c work.testbench "+UVM_TESTNAME=cfs_algn_md_tests_cnt_drop" "+sv_seed=391409840" "+UVM_MAX_QUIT_COUNT=1" "+access+rw" -f messages.f -do "do ../../tb/sim/toggle_exclude.do; coverage save -onexit ucdb/cfs_algn_md_tests_cnt_drop.ucdb; run -all; quit;" 
# Start time: 06:04:14 on May 11,2026
# ** Note: (vsim-8009) Loading existing optimized design _opt
# //  Questa Sim-64
# //  Version 2021.2_1 linux_x86_64 May 15 2021
# //
# //  Copyright 1991-2021 Mentor Graphics Corporation
# //  All Rights Reserved.
# //
# //  QuestaSim and its associated documentation contain trade
# //  secrets and commercial or financial information that are the property of
# //  Mentor Graphics Corporation and are privileged, confidential,
# //  and exempt from disclosure under the Freedom of Information Act,
# //  5 U.S.C. Section 552. Furthermore, this information
# //  is prohibited from disclosure under the Trade Secrets Act,
# //  18 U.S.C. Section 1905.
# //
# Loading sv_std.std
# Loading work.cfs_algn_if(fast)
# Loading work.cfs_apb_if(fast)
# Loading work.cfs_md_if(fast)
# Loading mtiUvm.uvm_pkg(fast)
# Loading work.cfs_algn_reg_pkg(fast)
# Loading work.uvm_ext_pkg(fast)
# Loading work.cfs_md_pkg(fast)
# Loading work.cfs_apb_pkg(fast)
# Loading work.cfs_algn_pkg(fast)
# Loading work.cfs_algn_test_pkg(fast)
# Loading mtiUvm.questa_uvm_pkg(fast)
# Loading work.testbench(fast)
# Loading work.cfs_apb_if(fast__2)
# Loading work.cfs_md_if(fast__2)
# Loading work.cfs_algn_if(fast__2)
# Loading work.cfs_aligner(fast)
# Loading work.cfs_aligner_core(fast)
# Loading work.cfs_rx_ctrl(fast)
# Loading work.cfs_synch(fast)
# Loading work.cfs_synch_fifo(fast)
# Loading work.cfs_tx_ctrl(fast)
# Loading work.cfs_ctrl(fast)
# Loading work.cfs_regs(fast)
# Loading work.cfs_edge_detect(fast)
# Loading work.cfs_edge_detect(fast__1)
# Loading /home/user/Downloads/questasim/uvm-1.1d/linux_x86_64/uvm_dpi.so
# do ../../tb/sim/toggle_exclude.do
# ** Warning: -comment options is supported in post simulation viewcov mode only, ignoring it.
# ** Warning: -comment options is supported in post simulation viewcov mode only, ignoring it.
# ** Warning: -comment options is supported in post simulation viewcov mode only, ignoring it.
# ** Warning: -comment options is supported in post simulation viewcov mode only, ignoring it.
# ** Warning: -comment options is supported in post simulation viewcov mode only, ignoring it.
#  coverage save -onexit ucdb/cfs_algn_md_tests_cnt_drop.ucdb
#  run -all
# ----------------------------------------------------------------
# UVM-1.1d
# (C) 2007-2013 Mentor Graphics Corporation
# (C) 2007-2013 Cadence Design Systems, Inc.
# (C) 2006-2013 Synopsys, Inc.
# (C) 2011-2013 Cypress Semiconductor Corp.
# ----------------------------------------------------------------
# 
#   ***********       IMPORTANT RELEASE NOTES         ************
# 
#   You are using a version of the UVM library that has been compiled
#   with `UVM_NO_DEPRECATED undefined.
#   See http://www.eda.org/svdb/view.php?id=3313 for more details.
# 
#   You are using a version of the UVM library that has been compiled
#   with `UVM_OBJECT_MUST_HAVE_CONSTRUCTOR undefined.
#   See http://www.eda.org/svdb/view.php?id=3770 for more details.
# 
#       (Specify +UVM_NO_RELNOTES to turn off this notice)
# 
# UVM_INFO verilog_src/questa_uvm_pkg-1.2/src/questa_uvm_pkg.sv(277) @ 0: reporter [Questa UVM] QUESTA_UVM-1.2.3
# UVM_INFO verilog_src/questa_uvm_pkg-1.2/src/questa_uvm_pkg.sv(278) @ 0: reporter [Questa UVM]  questa_uvm::init(+struct)
# UVM_INFO @ 0: reporter [RNTST] Running test cfs_algn_md_tests_cnt_drop...
# UVM_INFO @ 0: reporter [MAXQUITSET] '+UVM_MAX_QUIT_COUNT=1' provided on the command line is being applied.
# ** Warning: (vsim-8549) After dropping the illegal, ignore or invalid values, the values list associated with scalar bin 'length_eq_2' in Coverpoint 'length' of Covergroup instance '\/cfs_apb_pkg::cfs_apb_coverage::cover_item ' has converged to empty list. The bin will be taken out of coverage calculation.
#    Time: 0 ns  Iteration: 7  Region: /uvm_pkg::uvm_phase::m_run_phases
# ** Warning: (vsim-8547) After dropping the illegal, ignore or invalid values, the values list associated with fixed-size array sub bin 'length_le_10[1]' in Coverpoint 'length' of Covergroup instance '\/cfs_apb_pkg::cfs_apb_coverage::cover_item ' has converged to empty list. The sub bin will be taken out of coverage calculation.
#    Time: 0 ns  Iteration: 7  Region: /uvm_pkg::uvm_phase::m_run_phases
# ** Warning: (vsim-8547) After dropping the illegal, ignore or invalid values, the values list associated with fixed-size array sub bin 'length_le_10[2]' in Coverpoint 'length' of Covergroup instance '\/cfs_apb_pkg::cfs_apb_coverage::cover_item ' has converged to empty list. The sub bin will be taken out of coverage calculation.
#    Time: 0 ns  Iteration: 7  Region: /uvm_pkg::uvm_phase::m_run_phases
# ** Warning: (vsim-8547) After dropping the illegal, ignore or invalid values, the values list associated with fixed-size array sub bin 'length_le_10[3]' in Coverpoint 'length' of Covergroup instance '\/cfs_apb_pkg::cfs_apb_coverage::cover_item ' has converged to empty list. The sub bin will be taken out of coverage calculation.
#    Time: 0 ns  Iteration: 7  Region: /uvm_pkg::uvm_phase::m_run_phases
# ** Warning: (vsim-8547) After dropping the illegal, ignore or invalid values, the values list associated with fixed-size array sub bin 'length_le_10[4]' in Coverpoint 'length' of Covergroup instance '\/cfs_apb_pkg::cfs_apb_coverage::cover_item ' has converged to empty list. The sub bin will be taken out of coverage calculation.
#    Time: 0 ns  Iteration: 7  Region: /uvm_pkg::uvm_phase::m_run_phases
# ** Warning: (vsim-8547) After dropping the illegal, ignore or invalid values, the values list associated with fixed-size array sub bin 'length_le_10[5]' in Coverpoint 'length' of Covergroup instance '\/cfs_apb_pkg::cfs_apb_coverage::cover_item ' has converged to empty list. The sub bin will be taken out of coverage calculation.
#    Time: 0 ns  Iteration: 7  Region: /uvm_pkg::uvm_phase::m_run_phases
# ** Warning: (vsim-8547) After dropping the illegal, ignore or invalid values, the values list associated with fixed-size array sub bin 'length_le_10[6]' in Coverpoint 'length' of Covergroup instance '\/cfs_apb_pkg::cfs_apb_coverage::cover_item ' has converged to empty list. The sub bin will be taken out of coverage calculation.
#    Time: 0 ns  Iteration: 7  Region: /uvm_pkg::uvm_phase::m_run_phases
# ** Warning: (vsim-8547) After dropping the illegal, ignore or invalid values, the values list associated with fixed-size array sub bin 'length_le_10[7]' in Coverpoint 'length' of Covergroup instance '\/cfs_apb_pkg::cfs_apb_coverage::cover_item ' has converged to empty list. The sub bin will be taken out of coverage calculation.
#    Time: 0 ns  Iteration: 7  Region: /uvm_pkg::uvm_phase::m_run_phases
# ** Warning: (vsim-8549) After dropping the illegal, ignore or invalid values, the values list associated with scalar bin 'length_gt_10' in Coverpoint 'length' of Covergroup instance '\/cfs_apb_pkg::cfs_apb_coverage::cover_item ' has converged to empty list. The bin will be taken out of coverage calculation.
#    Time: 0 ns  Iteration: 7  Region: /uvm_pkg::uvm_phase::m_run_phases
# ** Warning: (vsim-12051) Illegal assignment in cast to class work.cfs_md_pkg::cfs_md_sequencer_base_master from class work.uvm_ext_pkg::uvm_ext_sequencer #(class work.cfs_md_pkg::cfs_md_item_drv_master)
#    Time: 0 ns  Iteration: 32  Process: /uvm_pkg::uvm_phase::m_run_phases/#FORK#1847_7fefe44bd36 File: ../env/cfs_algn_env.sv Line: 129
# ** Warning: (vsim-12051) Illegal assignment in cast to class work.cfs_md_pkg::cfs_md_sequencer_base_slave from class work.uvm_ext_pkg::uvm_ext_sequencer #(class work.cfs_md_pkg::cfs_md_item_drv_slave)
#    Time: 0 ns  Iteration: 32  Process: /uvm_pkg::uvm_phase::m_run_phases/#FORK#1847_7fefe44bd36 File: ../env/cfs_algn_env.sv Line: 130
# UVM_INFO verilog_src/uvm-1.1d/src/reg/uvm_reg_predictor.svh(218) @ 165: uvm_test_top.env.predictor [REG_PREDICT] Observed WRITE transaction to register reg_block.IRQEN: value='h13 : updated value = 'h13
# UVM_INFO verilog_src/uvm-1.1d/src/reg/uvm_reg_predictor.svh(218) @ 195: uvm_test_top.env.predictor [REG_PREDICT] Observed WRITE transaction to register reg_block.CTRL: value='h2 : updated value = 'h2
# UVM_INFO verilog_src/uvm-1.1d/src/reg/uvm_reg_predictor.svh(218) @ 235: uvm_test_top.env.predictor [REG_PREDICT] Observed WRITE transaction to register reg_block.IRQ: value='hd : updated value = 'h0
# UVM_INFO ../model/cfs_algn_model.sv(378) @ 266: uvm_test_top.env.model [CNT_DROP] Increment reg_block.STATUS.CNT_DROP: 1 due to: CFS_MD_ERR
# UVM_INFO ../agent_md/cfs_md_monitor.sv(88) @ 275: uvm_test_top.env.md_rx_agent.monitor [ITEM_END] Monitored item: [266..275] data: {'hf0, 'h76}, size: 2, offset: 1, response: CFS_MD_ERR, length: 1, prev_item_delay: 23
# UVM_INFO ../model/cfs_algn_model.sv(378) @ 346: uvm_test_top.env.model [CNT_DROP] Increment reg_block.STATUS.CNT_DROP: 2 due to: CFS_MD_ERR
# UVM_INFO ../agent_md/cfs_md_monitor.sv(88) @ 355: uvm_test_top.env.md_rx_agent.monitor [ITEM_END] Monitored item: [346..355] data: {'h41, 'hab, 'h6c}, size: 3, offset: 0, response: CFS_MD_ERR, length: 1, prev_item_delay: 7
# UVM_INFO ../model/cfs_algn_model.sv(378) @ 386: uvm_test_top.env.model [CNT_DROP] Increment reg_block.STATUS.CNT_DROP: 3 due to: CFS_MD_ERR
# UVM_INFO ../agent_md/cfs_md_monitor.sv(88) @ 395: uvm_test_top.env.md_rx_agent.monitor [ITEM_END] Monitored item: [386..395] data: {'h71, 'h6f, 'he5}, size: 3, offset: 0, response: CFS_MD_ERR, length: 1, prev_item_delay: 3
# UVM_INFO ../model/cfs_algn_model.sv(378) @ 446: uvm_test_top.env.model [CNT_DROP] Increment reg_block.STATUS.CNT_DROP: 4 due to: CFS_MD_ERR
# UVM_INFO ../agent_md/cfs_md_monitor.sv(88) @ 455: uvm_test_top.env.md_rx_agent.monitor [ITEM_END] Monitored item: [446..455] data: {'ha3, 'h11, 'ha8}, size: 3, offset: 0, response: CFS_MD_ERR, length: 1, prev_item_delay: 5
# UVM_INFO ../model/cfs_algn_model.sv(378) @ 506: uvm_test_top.env.model [CNT_DROP] Increment reg_block.STATUS.CNT_DROP: 5 due to: CFS_MD_ERR
# UVM_INFO ../agent_md/cfs_md_monitor.sv(88) @ 515: uvm_test_top.env.md_rx_agent.monitor [ITEM_END] Monitored item: [506..515] data: {'h1e, 'had}, size: 2, offset: 1, response: CFS_MD_ERR, length: 1, prev_item_delay: 5
# UVM_INFO ../model/cfs_algn_model.sv(378) @ 596: uvm_test_top.env.model [CNT_DROP] Increment reg_block.STATUS.CNT_DROP: 6 due to: CFS_MD_ERR
# UVM_INFO ../agent_md/cfs_md_monitor.sv(88) @ 605: uvm_test_top.env.md_rx_agent.monitor [ITEM_END] Monitored item: [596..605] data: {'h2d, 'h12, 'h14}, size: 3, offset: 0, response: CFS_MD_ERR, length: 1, prev_item_delay: 8
# UVM_INFO ../model/cfs_algn_model.sv(378) @ 646: uvm_test_top.env.model [CNT_DROP] Increment reg_block.STATUS.CNT_DROP: 7 due to: CFS_MD_ERR
# UVM_INFO ../agent_md/cfs_md_monitor.sv(88) @ 655: uvm_test_top.env.md_rx_agent.monitor [ITEM_END] Monitored item: [646..655] data: {'hf1, 'hac}, size: 2, offset: 1, response: CFS_MD_ERR, length: 1, prev_item_delay: 4
# UVM_INFO ../model/cfs_algn_model.sv(378) @ 676: uvm_test_top.env.model [CNT_DROP] Increment reg_block.STATUS.CNT_DROP: 8 due to: CFS_MD_ERR
# UVM_INFO ../agent_md/cfs_md_monitor.sv(88) @ 685: uvm_test_top.env.md_rx_agent.monitor [ITEM_END] Monitored item: [676..685] data: {'h71, 'h2d}, size: 2, offset: 1, response: CFS_MD_ERR, length: 1, prev_item_delay: 2
# UVM_INFO ../model/cfs_algn_model.sv(378) @ 726: uvm_test_top.env.model [CNT_DROP] Increment reg_block.STATUS.CNT_DROP: 9 due to: CFS_MD_ERR
# UVM_INFO ../agent_md/cfs_md_monitor.sv(88) @ 735: uvm_test_top.env.md_rx_agent.monitor [ITEM_END] Monitored item: [726..735] data: {'h5f, 'h46, 'h36}, size: 3, offset: 0, response: CFS_MD_ERR, length: 1, prev_item_delay: 4
# UVM_INFO ../model/cfs_algn_model.sv(378) @ 806: uvm_test_top.env.model [CNT_DROP] Increment reg_block.STATUS.CNT_DROP: 10 due to: CFS_MD_ERR
# UVM_INFO ../agent_md/cfs_md_monitor.sv(88) @ 815: uvm_test_top.env.md_rx_agent.monitor [ITEM_END] Monitored item: [806..815] data: {'ha3, 'h9f}, size: 2, offset: 1, response: CFS_MD_ERR, length: 1, prev_item_delay: 7
# UVM_INFO ../model/cfs_algn_model.sv(378) @ 886: uvm_test_top.env.model [CNT_DROP] Increment reg_block.STATUS.CNT_DROP: 11 due to: CFS_MD_ERR
# UVM_INFO ../agent_md/cfs_md_monitor.sv(88) @ 895: uvm_test_top.env.md_rx_agent.monitor [ITEM_END] Monitored item: [886..895] data: {'h4f, 'h21, 'hff}, size: 3, offset: 0, response: CFS_MD_ERR, length: 1, prev_item_delay: 7
# UVM_INFO ../model/cfs_algn_model.sv(378) @ 996: uvm_test_top.env.model [CNT_DROP] Increment reg_block.STATUS.CNT_DROP: 12 due to: CFS_MD_ERR
# UVM_INFO ../agent_md/cfs_md_monitor.sv(88) @ 1005: uvm_test_top.env.md_rx_agent.monitor [ITEM_END] Monitored item: [996..1005] data: {'h9a, 'h9d, 'h1a}, size: 3, offset: 0, response: CFS_MD_ERR, length: 1, prev_item_delay: 10
# UVM_INFO ../model/cfs_algn_model.sv(378) @ 1066: uvm_test_top.env.model [CNT_DROP] Increment reg_block.STATUS.CNT_DROP: 13 due to: CFS_MD_ERR
# UVM_INFO ../agent_md/cfs_md_monitor.sv(88) @ 1075: uvm_test_top.env.md_rx_agent.monitor [ITEM_END] Monitored item: [1066..1075] data: {'h2c, 'hd1, 'h9e}, size: 3, offset: 0, response: CFS_MD_ERR, length: 1, prev_item_delay: 6
# UVM_INFO ../model/cfs_algn_model.sv(378) @ 1096: uvm_test_top.env.model [CNT_DROP] Increment reg_block.STATUS.CNT_DROP: 14 due to: CFS_MD_ERR
# UVM_INFO ../agent_md/cfs_md_monitor.sv(88) @ 1105: uvm_test_top.env.md_rx_agent.monitor [ITEM_END] Monitored item: [1096..1105] data: {'hf9, 'h1e, 'h45}, size: 3, offset: 1, response: CFS_MD_ERR, length: 1, prev_item_delay: 2
# UVM_INFO ../model/cfs_algn_model.sv(378) @ 1166: uvm_test_top.env.model [CNT_DROP] Increment reg_block.STATUS.CNT_DROP: 15 due to: CFS_MD_ERR
# UVM_INFO ../agent_md/cfs_md_monitor.sv(88) @ 1175: uvm_test_top.env.md_rx_agent.monitor [ITEM_END] Monitored item: [1166..1175] data: {'hd2, 'h82, 'h2f}, size: 3, offset: 1, response: CFS_MD_ERR, length: 1, prev_item_delay: 6
# UVM_INFO ../model/cfs_algn_model.sv(378) @ 1226: uvm_test_top.env.model [CNT_DROP] Increment reg_block.STATUS.CNT_DROP: 16 due to: CFS_MD_ERR
# UVM_INFO ../agent_md/cfs_md_monitor.sv(88) @ 1235: uvm_test_top.env.md_rx_agent.monitor [ITEM_END] Monitored item: [1226..1235] data: {'hd2, 'hf5, 'h42}, size: 3, offset: 1, response: CFS_MD_ERR, length: 1, prev_item_delay: 5
# UVM_INFO ../model/cfs_algn_model.sv(378) @ 1286: uvm_test_top.env.model [CNT_DROP] Increment reg_block.STATUS.CNT_DROP: 17 due to: CFS_MD_ERR
# UVM_INFO ../agent_md/cfs_md_monitor.sv(88) @ 1295: uvm_test_top.env.md_rx_agent.monitor [ITEM_END] Monitored item: [1286..1295] data: {'h82, 'hb0}, size: 2, offset: 1, response: CFS_MD_ERR, length: 1, prev_item_delay: 5
# UVM_INFO ../model/cfs_algn_model.sv(378) @ 1366: uvm_test_top.env.model [CNT_DROP] Increment reg_block.STATUS.CNT_DROP: 18 due to: CFS_MD_ERR
# UVM_INFO ../agent_md/cfs_md_monitor.sv(88) @ 1375: uvm_test_top.env.md_rx_agent.monitor [ITEM_END] Monitored item: [1366..1375] data: {'h6d, 'he0, 'h04}, size: 3, offset: 0, response: CFS_MD_ERR, length: 1, prev_item_delay: 7
# UVM_INFO ../model/cfs_algn_model.sv(378) @ 1426: uvm_test_top.env.model [CNT_DROP] Increment reg_block.STATUS.CNT_DROP: 19 due to: CFS_MD_ERR
# UVM_INFO ../agent_md/cfs_md_monitor.sv(88) @ 1435: uvm_test_top.env.md_rx_agent.monitor [ITEM_END] Monitored item: [1426..1435] data: {'hf1, 'h95, 'ha9}, size: 3, offset: 1, response: CFS_MD_ERR, length: 1, prev_item_delay: 5
# UVM_INFO ../model/cfs_algn_model.sv(378) @ 1456: uvm_test_top.env.model [CNT_DROP] Increment reg_block.STATUS.CNT_DROP: 20 due to: CFS_MD_ERR
# UVM_INFO ../agent_md/cfs_md_monitor.sv(88) @ 1465: uvm_test_top.env.md_rx_agent.monitor [ITEM_END] Monitored item: [1456..1465] data: {'hc6, 'hfe, 'hb8}, size: 3, offset: 1, response: CFS_MD_ERR, length: 1, prev_item_delay: 2
# UVM_INFO ../model/cfs_algn_model.sv(378) @ 1506: uvm_test_top.env.model [CNT_DROP] Increment reg_block.STATUS.CNT_DROP: 21 due to: CFS_MD_ERR
# UVM_INFO ../agent_md/cfs_md_monitor.sv(88) @ 1515: uvm_test_top.env.md_rx_agent.monitor [ITEM_END] Monitored item: [1506..1515] data: {'h0e, 'h24}, size: 2, offset: 1, response: CFS_MD_ERR, length: 1, prev_item_delay: 4
# UVM_INFO ../model/cfs_algn_model.sv(378) @ 1586: uvm_test_top.env.model [CNT_DROP] Increment reg_block.STATUS.CNT_DROP: 22 due to: CFS_MD_ERR
# UVM_INFO ../agent_md/cfs_md_monitor.sv(88) @ 1595: uvm_test_top.env.md_rx_agent.monitor [ITEM_END] Monitored item: [1586..1595] data: {'h14, 'h37, 'h4e}, size: 3, offset: 0, response: CFS_MD_ERR, length: 1, prev_item_delay: 7
# UVM_INFO ../model/cfs_algn_model.sv(378) @ 1606: uvm_test_top.env.model [CNT_DROP] Increment reg_block.STATUS.CNT_DROP: 23 due to: CFS_MD_ERR
# UVM_INFO ../agent_md/cfs_md_monitor.sv(88) @ 1615: uvm_test_top.env.md_rx_agent.monitor [ITEM_END] Monitored item: [1606..1615] data: {'ha1, 'h40}, size: 2, offset: 1, response: CFS_MD_ERR, length: 1, prev_item_delay: 1
# UVM_INFO ../model/cfs_algn_model.sv(378) @ 1696: uvm_test_top.env.model [CNT_DROP] Increment reg_block.STATUS.CNT_DROP: 24 due to: CFS_MD_ERR
# UVM_INFO ../agent_md/cfs_md_monitor.sv(88) @ 1705: uvm_test_top.env.md_rx_agent.monitor [ITEM_END] Monitored item: [1696..1705] data: {'h55, 'h1b, 'he6}, size: 3, offset: 0, response: CFS_MD_ERR, length: 1, prev_item_delay: 8
# UVM_INFO ../model/cfs_algn_model.sv(378) @ 1806: uvm_test_top.env.model [CNT_DROP] Increment reg_block.STATUS.CNT_DROP: 25 due to: CFS_MD_ERR
# UVM_INFO ../agent_md/cfs_md_monitor.sv(88) @ 1815: uvm_test_top.env.md_rx_agent.monitor [ITEM_END] Monitored item: [1806..1815] data: {'h28, 'hc9, 'hbb}, size: 3, offset: 0, response: CFS_MD_ERR, length: 1, prev_item_delay: 10
# UVM_INFO ../model/cfs_algn_model.sv(378) @ 1856: uvm_test_top.env.model [CNT_DROP] Increment reg_block.STATUS.CNT_DROP: 26 due to: CFS_MD_ERR
# UVM_INFO ../agent_md/cfs_md_monitor.sv(88) @ 1865: uvm_test_top.env.md_rx_agent.monitor [ITEM_END] Monitored item: [1856..1865] data: {'h65, 'h8a}, size: 2, offset: 1, response: CFS_MD_ERR, length: 1, prev_item_delay: 4
# UVM_INFO ../model/cfs_algn_model.sv(378) @ 1866: uvm_test_top.env.model [CNT_DROP] Increment reg_block.STATUS.CNT_DROP: 27 due to: CFS_MD_ERR
# UVM_INFO ../agent_md/cfs_md_monitor.sv(88) @ 1875: uvm_test_top.env.md_rx_agent.monitor [ITEM_END] Monitored item: [1866..1875] data: {'h61, 'hbd, 'hf3}, size: 3, offset: 0, response: CFS_MD_ERR, length: 1, prev_item_delay: 0
# UVM_INFO ../model/cfs_algn_model.sv(378) @ 1926: uvm_test_top.env.model [CNT_DROP] Increment reg_block.STATUS.CNT_DROP: 28 due to: CFS_MD_ERR
# UVM_INFO ../agent_md/cfs_md_monitor.sv(88) @ 1935: uvm_test_top.env.md_rx_agent.monitor [ITEM_END] Monitored item: [1926..1935] data: {'h1f, 'hd1}, size: 2, offset: 1, response: CFS_MD_ERR, length: 1, prev_item_delay: 5
# UVM_INFO ../model/cfs_algn_model.sv(378) @ 1956: uvm_test_top.env.model [CNT_DROP] Increment reg_block.STATUS.CNT_DROP: 29 due to: CFS_MD_ERR
# UVM_INFO ../agent_md/cfs_md_monitor.sv(88) @ 1965: uvm_test_top.env.md_rx_agent.monitor [ITEM_END] Monitored item: [1956..1965] data: {'hef, 'hdc, 'hb1}, size: 3, offset: 0, response: CFS_MD_ERR, length: 1, prev_item_delay: 2
# UVM_INFO ../model/cfs_algn_model.sv(378) @ 2026: uvm_test_top.env.model [CNT_DROP] Increment reg_block.STATUS.CNT_DROP: 30 due to: CFS_MD_ERR
# UVM_INFO ../agent_md/cfs_md_monitor.sv(88) @ 2035: uvm_test_top.env.md_rx_agent.monitor [ITEM_END] Monitored item: [2026..2035] data: {'h97, 'haf, 'h9a}, size: 3, offset: 1, response: CFS_MD_ERR, length: 1, prev_item_delay: 6
# UVM_INFO ../model/cfs_algn_model.sv(378) @ 2056: uvm_test_top.env.model [CNT_DROP] Increment reg_block.STATUS.CNT_DROP: 31 due to: CFS_MD_ERR
# UVM_INFO ../agent_md/cfs_md_monitor.sv(88) @ 2065: uvm_test_top.env.md_rx_agent.monitor [ITEM_END] Monitored item: [2056..2065] data: {'h06, 'hd3, 'h91}, size: 3, offset: 0, response: CFS_MD_ERR, length: 1, prev_item_delay: 2
# UVM_INFO ../model/cfs_algn_model.sv(378) @ 2156: uvm_test_top.env.model [CNT_DROP] Increment reg_block.STATUS.CNT_DROP: 32 due to: CFS_MD_ERR
# UVM_INFO ../agent_md/cfs_md_monitor.sv(88) @ 2165: uvm_test_top.env.md_rx_agent.monitor [ITEM_END] Monitored item: [2156..2165] data: {'h9e, 'he4, 'h85}, size: 3, offset: 0, response: CFS_MD_ERR, length: 1, prev_item_delay: 9
# UVM_INFO ../model/cfs_algn_model.sv(378) @ 2226: uvm_test_top.env.model [CNT_DROP] Increment reg_block.STATUS.CNT_DROP: 33 due to: CFS_MD_ERR
# UVM_INFO ../agent_md/cfs_md_monitor.sv(88) @ 2235: uvm_test_top.env.md_rx_agent.monitor [ITEM_END] Monitored item: [2226..2235] data: {'h07, 'hff, 'h75}, size: 3, offset: 0, response: CFS_MD_ERR, length: 1, prev_item_delay: 6
# UVM_INFO ../model/cfs_algn_model.sv(378) @ 2286: uvm_test_top.env.model [CNT_DROP] Increment reg_block.STATUS.CNT_DROP: 34 due to: CFS_MD_ERR
# UVM_INFO ../agent_md/cfs_md_monitor.sv(88) @ 2295: uvm_test_top.env.md_rx_agent.monitor [ITEM_END] Monitored item: [2286..2295] data: {'h5e, 'h43, 'h06}, size: 3, offset: 1, response: CFS_MD_ERR, length: 1, prev_item_delay: 5
# UVM_INFO ../model/cfs_algn_model.sv(378) @ 2356: uvm_test_top.env.model [CNT_DROP] Increment reg_block.STATUS.CNT_DROP: 35 due to: CFS_MD_ERR
# UVM_INFO ../agent_md/cfs_md_monitor.sv(88) @ 2365: uvm_test_top.env.md_rx_agent.monitor [ITEM_END] Monitored item: [2356..2365] data: {'h4c, 'hc8, 'h73}, size: 3, offset: 0, response: CFS_MD_ERR, length: 1, prev_item_delay: 6
# UVM_INFO ../model/cfs_algn_model.sv(378) @ 2406: uvm_test_top.env.model [CNT_DROP] Increment reg_block.STATUS.CNT_DROP: 36 due to: CFS_MD_ERR
# UVM_INFO ../agent_md/cfs_md_monitor.sv(88) @ 2415: uvm_test_top.env.md_rx_agent.monitor [ITEM_END] Monitored item: [2406..2415] data: {'ha2, 'hf7, 'h74}, size: 3, offset: 1, response: CFS_MD_ERR, length: 1, prev_item_delay: 4
# UVM_INFO ../model/cfs_algn_model.sv(378) @ 2486: uvm_test_top.env.model [CNT_DROP] Increment reg_block.STATUS.CNT_DROP: 37 due to: CFS_MD_ERR
# UVM_INFO ../agent_md/cfs_md_monitor.sv(88) @ 2495: uvm_test_top.env.md_rx_agent.monitor [ITEM_END] Monitored item: [2486..2495] data: {'hf3, 'h23, 'h05}, size: 3, offset: 1, response: CFS_MD_ERR, length: 1, prev_item_delay: 7
# UVM_INFO ../model/cfs_algn_model.sv(378) @ 2546: uvm_test_top.env.model [CNT_DROP] Increment reg_block.STATUS.CNT_DROP: 38 due to: CFS_MD_ERR
# UVM_INFO ../agent_md/cfs_md_monitor.sv(88) @ 2555: uvm_test_top.env.md_rx_agent.monitor [ITEM_END] Monitored item: [2546..2555] data: {'h75, 'hbd}, size: 2, offset: 1, response: CFS_MD_ERR, length: 1, prev_item_delay: 5
# UVM_INFO ../model/cfs_algn_model.sv(378) @ 2566: uvm_test_top.env.model [CNT_DROP] Increment reg_block.STATUS.CNT_DROP: 39 due to: CFS_MD_ERR
# UVM_INFO ../agent_md/cfs_md_monitor.sv(88) @ 2575: uvm_test_top.env.md_rx_agent.monitor [ITEM_END] Monitored item: [2566..2575] data: {'h99, 'h30}, size: 2, offset: 1, response: CFS_MD_ERR, length: 1, prev_item_delay: 1
# UVM_INFO ../model/cfs_algn_model.sv(378) @ 2626: uvm_test_top.env.model [CNT_DROP] Increment reg_block.STATUS.CNT_DROP: 40 due to: CFS_MD_ERR
# UVM_INFO ../agent_md/cfs_md_monitor.sv(88) @ 2635: uvm_test_top.env.md_rx_agent.monitor [ITEM_END] Monitored item: [2626..2635] data: {'heb, 'h04, 'hb1}, size: 3, offset: 0, response: CFS_MD_ERR, length: 1, prev_item_delay: 5
# UVM_INFO ../model/cfs_algn_model.sv(378) @ 2676: uvm_test_top.env.model [CNT_DROP] Increment reg_block.STATUS.CNT_DROP: 41 due to: CFS_MD_ERR
# UVM_INFO ../agent_md/cfs_md_monitor.sv(88) @ 2685: uvm_test_top.env.md_rx_agent.monitor [ITEM_END] Monitored item: [2676..2685] data: {'h0a, 'hb4}, size: 2, offset: 1, response: CFS_MD_ERR, length: 1, prev_item_delay: 4
# UVM_INFO ../model/cfs_algn_model.sv(378) @ 2726: uvm_test_top.env.model [CNT_DROP] Increment reg_block.STATUS.CNT_DROP: 42 due to: CFS_MD_ERR
# UVM_INFO ../agent_md/cfs_md_monitor.sv(88) @ 2735: uvm_test_top.env.md_rx_agent.monitor [ITEM_END] Monitored item: [2726..2735] data: {'h2a, 'h7f, 'h44}, size: 3, offset: 0, response: CFS_MD_ERR, length: 1, prev_item_delay: 4
# UVM_INFO ../model/cfs_algn_model.sv(378) @ 2756: uvm_test_top.env.model [CNT_DROP] Increment reg_block.STATUS.CNT_DROP: 43 due to: CFS_MD_ERR
# UVM_INFO ../agent_md/cfs_md_monitor.sv(88) @ 2765: uvm_test_top.env.md_rx_agent.monitor [ITEM_END] Monitored item: [2756..2765] data: {'h1a, 'h7c}, size: 2, offset: 1, response: CFS_MD_ERR, length: 1, prev_item_delay: 2
# UVM_INFO ../model/cfs_algn_model.sv(378) @ 2816: uvm_test_top.env.model [CNT_DROP] Increment reg_block.STATUS.CNT_DROP: 44 due to: CFS_MD_ERR
# UVM_INFO ../agent_md/cfs_md_monitor.sv(88) @ 2825: uvm_test_top.env.md_rx_agent.monitor [ITEM_END] Monitored item: [2816..2825] data: {'ha4, 'ha0, 'h8b}, size: 3, offset: 1, response: CFS_MD_ERR, length: 1, prev_item_delay: 5
# UVM_INFO ../model/cfs_algn_model.sv(378) @ 2856: uvm_test_top.env.model [CNT_DROP] Increment reg_block.STATUS.CNT_DROP: 45 due to: CFS_MD_ERR
# UVM_INFO ../agent_md/cfs_md_monitor.sv(88) @ 2865: uvm_test_top.env.md_rx_agent.monitor [ITEM_END] Monitored item: [2856..2865] data: {'h85, 'h78, 'h2a}, size: 3, offset: 1, response: CFS_MD_ERR, length: 1, prev_item_delay: 3
# UVM_INFO ../model/cfs_algn_model.sv(378) @ 2876: uvm_test_top.env.model [CNT_DROP] Increment reg_block.STATUS.CNT_DROP: 46 due to: CFS_MD_ERR
# UVM_INFO ../agent_md/cfs_md_monitor.sv(88) @ 2885: uvm_test_top.env.md_rx_agent.monitor [ITEM_END] Monitored item: [2876..2885] data: {'h9d, 'h71}, size: 2, offset: 1, response: CFS_MD_ERR, length: 1, prev_item_delay: 1
# UVM_INFO ../model/cfs_algn_model.sv(378) @ 2916: uvm_test_top.env.model [CNT_DROP] Increment reg_block.STATUS.CNT_DROP: 47 due to: CFS_MD_ERR
# UVM_INFO ../agent_md/cfs_md_monitor.sv(88) @ 2925: uvm_test_top.env.md_rx_agent.monitor [ITEM_END] Monitored item: [2916..2925] data: {'h4a, 'h04, 'h96}, size: 3, offset: 0, response: CFS_MD_ERR, length: 1, prev_item_delay: 3
# UVM_INFO ../model/cfs_algn_model.sv(378) @ 3006: uvm_test_top.env.model [CNT_DROP] Increment reg_block.STATUS.CNT_DROP: 48 due to: CFS_MD_ERR
